EST_NO,2015_MEAN_impact_c_cumulative,2023_MEAN_Cumul_Impact_ALL,2023_MEAN_Cumul_Impact_sp,2023_MEAN_Cumul_Impact_dp,2023_MEAN_Cumul_Impact_bh,2023_MEAN_Cumul_Impact_eg,2023_MEAN_Cumul_Impact_sr,2023_MEAN_Cumul_Impact_kp,2024_MEAN_Cumul_Impact_ALL,2024_MEAN_Cumul_Impact_sp,2024_MEAN_Cumul_Impact_dp,2024_MEAN_Cumul_Impact_bh,2024_MEAN_Cumul_Impact_eg,2024_MEAN_Cumul_Impact_sr,2024_MEAN_Cumul_Impact_kp
1,25.058451100748666,38.28228101730347,35.80166015625,,,6.201552152633667,,,77.30774307250977,39.10194473266601,,34.84932022094726,8.391195297241211,,
2,20.106521917137542,39.33472363040782,34.439252090454104,,,6.119339424942154,,,103.38000701568089,38.888220977783206,,57.206038284301755,9.107184691994917,,
3,22.145076419155764,33.14838638305664,22.05677375793457,,,13.864515781402588,,,119.17270848751068,27.852176666259766,,73.21883773803711,22.627117604017258,,
4,18.411588195554014,26.758358103888376,21.93593270438058,,,,,8.439244449138641,98.09528357642037,22.27506296975272,,67.85551152910504,,,13.938240885734558
5,20.916670160698047,44.75285577774048,36.79098415374756,,,12.738994598388672,,,88.35946594178677,37.64750003814697,,41.26589238643646,15.113717627525329,,
6,22.436683035750075,46.14547477828132,37.37827258639865,,,9.863102465867996,,,91.0136149989234,41.805912017822266,,38.764781104193794,11.748287111520767,,
7,15.524494625599365,14.718856155872345,13.910000801086426,,,1.6177107095718384,,,45.69143760204315,24.35500144958496,,20.05098247528076,2.5709073543548584,,
8,14.234840900740915,16.733660824596882,14.509999910990397,,,3.335491370409727,,,55.72506671895584,24.64930597941081,,27.715794881184895,5.039948787540197,,
9,47.973242597473636,35.72093542416891,31.94622802734375,,,5.662061095237732,,,90.931183218956,45.372952143351235,,41.169228871663414,6.583503305912018,,
10,9.000419974805341,34.03582698958261,29.750770568847656,,,5.999078989028931,,,69.6763699054718,33.70545768737793,,31.51206534249442,6.242385625839233,,
11,24.142994025709047,37.99419661717756,35.29895864214216,,,4.192592405610615,,,69.84682221710682,38.20831898280552,,28.242247445242747,5.283064560757743,,
12,14.429491023962944,19.0600004196167,19.0600004196167,,,,,,38.61569881439209,21.8859920501709,,16.72970676422119,,,
13,22.312689835345406,24.661064264462574,22.278664237574528,,,3.4819692700671463,,,61.10944559694709,24.894795668752568,,33.19507006595009,4.41323210635724,,
14,23.25804886006212,24.418037079847775,21.962882848886345,,,3.9896256253123283,,,38.3030328390193,20.44743229792668,,15.872640096224272,3.222310722911061,,
15,23.78814503260291,54.067464363574985,47.44592437744141,,,8.828719981511433,,,121.92060536444187,54.12770290374756,,58.46840190887451,12.432667402426402,,
16,20.495749382585327,42.16908011904785,34.72907938276018,,,8.012308485232866,,,79.03632422643048,39.321262904575896,,30.11234269823347,10.341389286976595,,
17,13.887255919943563,13.663428942362467,13.663428942362467,,,,,,25.301443656285603,13.731520016988119,,11.569923639297485,,,
18,21.38988357678489,23.579230912029743,17.496132850646973,,,6.0830980613827705,,,40.469748770197235,17.0628604888916,,17.10870297749837,6.298185303807259,,
19,16.221697297227145,16.338578909635544,13.49622893333435,,,3.789799968401591,,,30.88064444065094,13.889540910720825,,13.498984575271606,4.656158606211345,,
20,12.466015808109816,14.96982741355896,14.509999752044678,,,0.9196553230285645,,,30.598803639411926,15.287795543670654,,14.807921409606934,1.0061733722686768,,
21,9.853885168511477,21.763896465301514,13.879258155822754,,,7.88463830947876,,,31.979259490966797,12.94610595703125,,11.311347961425781,7.721805572509766,,
22,41.76277824926017,21.187054252624513,21.187054252624513,,,,,,70.48993434906006,33.190715599060056,,37.29921875,,,
23,17.29014506752213,24.292544228690012,20.99637426648821,,,4.614637947082519,,,80.18620238985334,23.717226028442383,,51.2954672404698,7.242912769317627,,
24,10.496272869052554,27.102620869874954,25.941258192062378,,,4.645450711250305,,,77.36374068260193,33.671855449676514,,42.07614707946777,6.462952613830566,,
25,19.99437202218236,24.172402555292305,24.172402555292305,,,,,,51.601729436354205,27.737004626880992,,23.864724809473213,,,
26,28.465409834386623,33.19125938415527,33.19125938415527,,,,,,95.19829940795898,36.88792324066162,,58.31037616729736,,,
27,8.854995634665888,18.043328255414963,13.849997520446777,,,4.193330734968185,,,37.63885661959648,16.67671775817871,,16.436506271362305,4.525632590055466,,
28,19.917494571080482,23.56562340259552,16.985716025034588,,,6.579907377560933,,,52.208794832229614,23.27355734507243,,20.59082857767741,8.344408909479776,,
29,22.46470174691848,28.314451535542805,23.819630304972332,,,4.494821230570476,,,58.931343833605446,26.545441309611004,,27.95311101277669,4.432791511217753,,
30,32.921505583900654,22.85565948486328,22.85565948486328,,,,,,49.89862537384033,25.20999240875244,,24.68863296508789,,,
31,11.615180688308334,33.767769734064736,22.271785736083984,,,17.24397599697113,,,91.07508993148804,25.298184076944988,,50.579075495402016,22.796745538711548,,
32,22.145076419155764,35.064974308013916,27.81626319885254,,,14.497422218322754,,,162.27236652374268,36.73373794555664,,114.57316970825195,21.930917739868164,,
33,11.858221512457463,14.454106998443603,14.454106998443603,,,,,,37.18338947296142,18.56180820465088,,18.621581268310546,,,
34,14.52480505167638,19.885053123746598,17.042894090924943,,,3.3158522049585977,,,34.479043841362,18.527561732700892,,14.128287996564593,2.127059797445933,,
35,50.2586380397664,18.00380592867732,17.774919810014612,0.47109444936116535,,5.768824126857978,,,39.201863352538034,20.046820198788364,0.5800536597768465,18.757194305342786,10.137560499975315,,
36,24.690126871848342,41.733261761920794,37.08653313773019,,,4.646728624190603,,,93.43838060647249,40.97098159790039,,46.210592814854216,6.256806193717888,,
37,51.754153624756064,21.840469360351562,21.840469360351562,,,,,,73.27588335673015,31.4404239654541,,41.83545939127604,,,
38,34.01129997773745,19.910615921020508,19.910615921020508,,,,,,77.52075290679932,27.22984790802002,,50.2909049987793,,,
39,19.260065881180502,19.306676745414734,15.496957302093506,,,3.809719443321228,,,37.70870244503021,19.717516899108887,,14.006959915161133,3.984225630760193,,
40,12.527931270772715,18.090041160583496,18.090041160583496,,,,,,52.0553183555603,18.28622603416443,,33.769092321395874,,,
41,13.126434074230815,18.199353218078613,18.199353218078613,,,,,,70.22860431671143,23.617924690246582,,46.610679626464844,,,
42,12.811212376043207,30.232009887695312,18.368600845336914,,,11.863409042358398,,,80.6043381690979,22.872977256774902,,41.98028373718262,15.75107717514038,,
43,10.824858974838353,19.31969102223714,16.7889404296875,,,3.796125888824463,,,38.90091768900553,18.326666514078777,,18.120471954345703,3.680668830871582,,
44,10.80299605293832,12.327439880371093,12.327439880371093,,,,,,28.80124464035034,12.233273696899413,,16.567970943450927,,,
45,9.756793163465224,15.893443311963763,15.893443311963763,,,,,,57.997234616960796,18.240212644849503,,39.757021972111296,,,
46,17.072116746295258,17.000491460164387,17.000491460164387,,,,,,80.29667727152507,20.529996554056805,,59.76668071746826,,,
47,12.373039204435516,13.424855470657349,13.424855470657349,,,,,,31.65717124938965,12.549995422363281,,19.107175827026367,,,
48,13.66865465256093,24.770309329032898,20.059946537017822,,,,,9.420725584030151,65.87224864959717,18.97499942779541,,40.874396324157715,,,12.045705795288086
49,7.808102079467986,23.92745812733968,20.011787096659344,,,5.873506546020508,,,121.0355453491211,29.43666394551595,,84.27136739095052,10.991271018981934,,
50,8.276428851133401,30.75011618932088,21.69689114888509,,,13.579837560653687,,,145.47676944732666,31.60333315531413,,100.71574147542317,19.736542224884033,,
51,12.063569679826555,34.67378377914429,21.16259765625,,,13.511186122894287,,,124.48254108428955,26.79112434387207,,78.46959559122722,19.221821149190266,,
52,11.5931760477845,29.039634386698406,21.71050516764323,,,7.329129219055176,,,152.8154042561849,29.00847053527832,,111.16824849446614,12.63868522644043,,
53,12.465066504458166,30.344150876998903,19.69730911254883,,,10.646841764450073,,,126.98600339889526,24.651463127136232,,87.20480422973633,15.129736042022705,,
54,17.89092171215022,27.11205554008484,21.78941011428833,,,7.096860567728679,,,105.5507562160492,23.948429822921753,,72.37686896324158,12.300609906514486,,
55,17.654443769592525,25.319442351659138,20.957186539967854,,,6.543383717536926,,,118.50968917210896,23.987027168273926,,86.77128632863362,11.627063512802124,,
56,12.721730172394702,27.201802583411336,17.858739058176678,,,9.34306352523466,,,83.03112586339314,20.018800894419353,,50.27148564656576,12.740839322408041,,
57,15.97273765170713,22.3364697098732,18.261157512664795,,,4.0753121972084045,,,82.34191876649857,19.690584659576416,,56.05111312866211,6.60022097826004,,
58,13.22839614084326,26.349366823832195,20.30961736043294,,,9.059624195098877,,,130.26611455281576,27.007539749145508,,93.90204238891602,14.034798622131348,,
59,10.343188033240192,28.23855948448181,19.896210193634033,,,8.342349290847778,,,142.81073451042175,29.83964490890503,,98.08247375488281,14.888615846633911,,
60,9.2198491265804,24.582184235254925,14.074012438456217,,,10.508171796798706,,,53.246723333994545,15.653674761454264,,26.119256655375164,11.473791917165121,,
61,9.118490311168225,17.053876241048176,14.23444906870524,,,8.458281517028809,,,52.951680183410645,17.06636651357015,,32.971001942952476,8.742935180664062,,
62,15.873609273361035,15.323960691690445,12.508866310119629,,,2.815094381570816,,,23.392897307872772,10.998866558074951,,9.549769878387451,2.84426087141037,,
63,18.386083955039098,18.1263174880296,13.979232788085938,,,4.147084699943662,,,29.30940804257989,13.00423288345337,,12.345885276794434,3.9592898823320866,,
64,9.775665989744134,11.39704291895032,11.360000610351562,,,0.03704230859875679,,,19.464725703001022,9.45419692993164,,9.98066520690918,0.029863566160202026,,
65,14.221725945074974,9.120049935287378,9.120048840840658,,,1.6416700816535013e-06,,,29.760097187715246,10.443546613057455,,17.66654936472575,2.4750018148980644,,
66,18.370881643399933,18.58641258875529,15.30000082651774,,,4.929617643356323,,,34.34678427378336,14.616488138834635,,16.22918701171875,5.251663684844971,,
67,16.777427293268186,18.21759943664074,14.97749662399292,,,3.2401028126478195,,,40.96355366706848,19.806318283081055,,16.70395803451538,4.453277349472046,,
68,13.473115359482021,15.03605604171753,14.73862600326538,0.5948600769042969,,,,,29.73655813932419,15.875421047210693,0.8328040838241577,13.444735050201416,,,
69,15.199726346214566,21.90610595047474,16.594007968902588,,,5.312097981572151,,,44.313358545303345,18.689425468444824,,19.67257595062256,5.951357126235962,,
70,16.105636358246105,17.077558368444443,15.800506591796875,1.2770517766475677,,,,,35.02419865131378,16.90694761276245,1.9393450021743774,16.177906036376953,,,
71,15.967725646331118,33.91605668067932,21.42816028594971,,,13.87544043858846,,,60.49012932777405,21.184148025512695,,23.17000732421875,17.92885997560289,,
72,24.78134114993394,27.082880973815918,27.082880973815918,,,,,,55.38079261779785,28.59982681274414,,26.78096580505371,,,
73,26.521826557904628,20.720028559366863,16.97449493408203,11.236600875854492,,,,,28.374561309814453,14.781161626180014,8.167990684509277,10.870736122131348,,,
74,23.467027798279034,43.78620161328997,35.40558896745954,,,8.380612645830427,,,86.9921875,41.11814662388393,,35.37092672075544,10.503114155360631,,
75,15.970817569020959,18.634390632311504,17.339091618855793,,,1.9429485201835632,,,38.773668805758156,20.135948181152344,,18.012224197387695,0.938244640827179,,
76,18.250824502783633,23.66682457923889,20.83000310262044,4.255232214927673,,,,,43.409858306248985,22.253443400065105,3.7870315313339233,18.63172721862793,,,
77,25.811517207599287,18.44141886010766,18.424055099487305,0.017363760620355606,,,,,38.46424357034266,18.39499855041504,0.013107934966683388,20.056137084960938,,,
78,26.27155567139465,21.57241844832897,21.521472549438478,0.08490983148415883,,,,,42.784130099974576,23.990730667114256,0.08537483805169661,18.742174530029295,,,
79,13.489693277649682,41.31655979156494,26.80777581532796,,,14.508783976236979,,,142.29823954900107,33.91291809082031,,88.03687032063802,20.348451137542725,,
80,17.388870658812994,31.76818561553955,21.472497940063477,,,,,10.295687675476074,129.09563446044922,26.119997024536133,,86.03327178955078,,,16.942365646362305
81,23.12195486552575,26.539498805999756,26.539498805999756,,,,,,118.62769889831543,35.81697654724121,,82.81072235107422,,,
82,20.895210460273272,25.254298210144043,25.254298210144043,,,,,,123.29380130767822,29.417500495910645,,93.87630081176758,,,
83,9.340784343269389,21.011520385742188,21.011520385742188,,,,,,115.64960861206055,26.286823272705078,,89.36278533935547,,,
84,9.158391599301549,22.009368578592937,19.092296600341797,,,8.751215934753418,,,106.94469833374023,25.573912302652996,,76.58339564005534,14.362171173095703,,
85,8.875303865560005,31.53903079032898,18.551839351654053,,,12.987191438674927,,,120.37916254997253,25.820000171661377,,75.60066032409668,18.958502054214478,,
86,7.041912129401188,19.67219591140747,15.597890377044678,,,8.148611068725586,,,106.30479621887207,22.43574810028076,,77.03799057006836,13.662115097045898,,
87,7.294033774694148,23.671731650829315,17.682398319244385,,,5.98933333158493,,,101.63517832756042,22.14764666557312,,69.87310671806335,9.61442494392395,,
88,7.853880955664099,18.58647696177165,18.58647696177165,,,,,,91.17482312520345,25.58679262797038,,65.58803049723308,,,
89,8.46577207097466,32.6367000579834,21.562014770507812,,,13.843356609344482,,,135.21382427215576,28.837112808227538,,90.07469635009765,20.377518892288208,,
90,15.00703935248054,15.631221453348795,15.631221453348795,,,,,,47.57823499043783,22.046892166137695,,25.53134282430013,,,
91,14.555209265407859,16.812278079800308,13.799180507659912,,,3.0130975721403956,,,31.535851556807756,14.465914964675903,,14.264202117919922,2.8057344742119312,,
92,18.38542877038751,15.419145147005716,14.137845039367676,,,1.9219501614570618,,,36.362834453582764,16.896464029947918,,17.973866780598957,2.238755464553833,,
93,14.380807260901491,17.70640568466236,16.891729990641277,,,1.2220135410316288,,,32.97428942844272,14.442797978719076,,17.67281214396159,1.2880189586430788,,
94,20.076962516641014,17.366397246718407,15.990002155303955,,,1.3763950914144516,,,34.79008197784424,15.33000135421753,,17.520398139953613,1.9396824836730957,,
95,9.635934442163157,16.8919287443161,13.460001182556152,,,4.289909452199936,,,30.545663249492645,13.397686195373534,,13.55279769897461,4.493974193930626,,
96,24.856418944999586,24.267200589179993,21.670557498931885,,,2.596643090248108,,,85.06931835412979,30.58650827407837,,49.71669673919678,4.766113340854645,,
97,14.265375318544168,18.760000228881836,18.760000228881836,,,,,,34.021477699279785,21.755285263061523,,12.266192436218262,,,
98,15.029992268552988,18.217498779296875,18.217498779296875,,,,,,44.64121150970459,22.446269512176514,,22.194941997528076,,,
99,9.415941712507347,23.19419574737549,16.316450595855713,,,6.877745151519775,,,53.33332681655884,19.518138885498047,,25.542025566101074,8.273162364959717,,
100,12.127636720310068,23.618079662322998,21.40824604034424,,,4.4196672439575195,,,77.96864104270935,25.10648822784424,,49.42729949951172,6.869706630706787,,
101,39.954562342279154,26.808976491292317,26.808976491292317,,,,,,90.48618952433269,37.69707489013672,,52.78911463419596,,,
102,27.799769506872103,23.65144321322441,21.11973524093628,2.5317079722881317,,,,,43.898906499147415,22.023021697998047,2.7349174320697784,19.14096736907959,,,
103,7.726467560547602,10.244077499955893,9.548750638961792,,,0.9271024813254675,,,17.9840005338192,9.823750495910645,,7.422868728637695,0.9831750790278116,,
104,9.950248337400915,22.764370799064636,19.57691240310669,,,6.3749167919158936,,,121.67135834693909,26.844982147216797,,87.90555477142334,13.8416428565979,,
105,10.338172766469379,11.281373659769693,11.281373659769693,,,,,,23.9100284576416,10.875253359476725,,13.034775098164877,,,
106,10.686801577962857,23.776185154914856,15.958043813705444,,,10.424188454945883,,,108.96667909622192,22.79608726501465,,74.50564575195312,15.553261439005533,,
107,12.809469730924297,20.384334564208984,16.16339945793152,,,8.441870212554932,,,36.44272184371948,19.992499351501465,,11.571107625961304,9.758229732513428,,
108,13.320993181903303,21.851386370602995,19.750133991241455,,,2.8016698391487203,,,43.213854832574725,23.88679027557373,,17.073113918304443,3.0052675182620683,,
109,12.11314210912126,20.17135222752889,15.467214902242025,,,4.704137325286865,,,41.13114587465922,21.169757843017578,,14.461190541585287,5.5001974900563555,,
110,15.5756694292599,19.228709518909454,16.50999903678894,,,5.437420964241028,,,37.00452983379364,17.648004055023193,,16.495335578918457,5.7223803997039795,,
111,17.54271352804427,14.185994394123554,13.499997615814209,0.2783042788505554,,1.2328414171934128,,,33.41079717874527,17.244997024536133,0.4554070234298706,15.209597110748291,1.6847025752067566,,
112,14.73857763505848,17.113185733556747,16.8700008392334,,,0.243184894323349,,,30.930796414613724,14.387873649597168,,16.247234344482422,0.2956884205341339,,
113,12.955553909390952,16.943312350060904,15.423998832702637,,,2.2789702760373984,,,42.78992159116594,15.630400975545248,,25.04789384206136,3.167440160338998,,
114,29.279677783216282,25.765743017196655,20.29125475883484,10.948976516723633,,,,,34.1255316734314,18.763249158859253,9.558624744415283,10.582970142364502,,,
115,30.045468611197077,16.837279319763184,16.837279319763184,,,,,,28.31472333272298,16.254608154296875,,12.060115178426107,,,
116,21.800741359255124,22.348812341690063,20.160236358642578,4.377151966094971,,,,,118.13278198242188,26.672496795654297,3.5231781005859375,89.69869613647461,,,
117,12.91830850698658,22.33645498752594,14.40677285194397,,,7.92968213558197,,,98.89110445976257,22.609997272491455,,60.88790798187256,15.39319920539856,,
118,10.342988816651621,10.273009697596232,6.850000063578288,,,3.4230096340179443,,,11.454801718393961,5.984026273091634,,2.389156977335612,3.0816184679667153,,
119,13.782578889233491,18.90774416923523,17.28050446510315,,,,,6.50895881652832,55.24895977973938,19.222510814666748,,33.71363687515259,,,9.251248359680176
120,11.5215828820152,9.269018411636353,7.100585341453552,,,2.891244093577067,,,26.98319149017334,8.017594814300537,,15.918458759784698,4.062850554784139,,
121,7.4493168687794,3.229999876022339,3.229999876022339,,,,,,5.5717040538787845,2.85,,2.721704053878784,,,
122,11.142833402458155,5.937068462371826,5.937068462371826,,,,,,16.4537296295166,7.727068662643433,,8.726660966873169,,,
123,9.875487424972029,6.125,6.125,,,,,,16.960551977157593,8.039999961853027,,8.920552015304565,,,
124,8.567841246365886,13.360922050476074,10.05999927520752,,,4.126153469085693,,,19.638294172286987,9.3,,7.462296485900879,3.5949971079826355,,
125,8.97980371769492,14.35407018661499,14.35407018661499,,,,,,73.77336525917053,20.355729341506958,,53.417635917663574,,,
126,6.91721326302251,17.432182822908675,15.38680008479527,,,4.7725597222646075,,,63.68963420391083,17.89163453238351,,43.38671602521624,5.626328508059184,,
127,11.13254628895208,38.091315587361656,20.097609837849934,,,17.99370574951172,,,134.9553623199463,27.665794372558594,,83.04434458414714,24.24522336324056,,
128,12.709225838706708,15.316834767659506,15.316834767659506,,,,,,54.38703759511312,20.686858812967937,,33.70017878214518,,,
129,9.31228073114583,17.879507700602215,14.62696647644043,,,9.757623672485352,,,52.085917472839355,25.166667302449543,,23.168989181518555,11.25078296661377,,
130,16.528364846958613,16.22330343723297,14.851207733154297,,,2.7441914081573486,,,51.867791175842285,24.12568187713623,,25.62617015838623,4.231878280639648,,
131,11.807738398634854,10.36451768875122,10.36451768875122,,,,,,33.78393602371216,11.134700775146484,,22.649235248565674,,,
132,10.842602146802038,16.098368008931477,16.098368008931477,,,,,,36.10587326685587,15.03414535522461,,21.071727911631267,,,
133,10.364185029173363,9.575048208236694,9.289999961853027,,,,,0.570096492767334,15.156908169388771,7.7250001430511475,,7.19432806968689,,,0.4751599133014679
134,11.765528791585032,11.830264806747437,10.747686386108398,,,,,2.165156841278076,40.19417190551758,12.622499942779541,,25.057881355285645,,,5.027581214904785
135,12.474957758596911,17.10859727859497,13.881998062133789,,,,,3.2265992164611816,46.80745315551758,14.230000495910645,,27.433685302734375,,,5.143767356872559
136,10.115004881397788,4.229999303817749,4.229999303817749,,,,,,7.482895334561666,4.252911965052287,,3.229983369509379,,,
137,10.182644030943385,4.335524496436119,3.770000696182251,,,1.4138095006346703,,,5.322257241606712,2.880578708648682,,2.1409263134002687,0.7518805488944054,,
138,9.094272145144302,4.840585877497991,4.756667455037435,,,,,0.12587763369083405,7.354168724268675,3.980000654856364,,3.321617841720581,,,0.0788253415375948
139,8.81586301846542,5.776727358500163,4.843333721160889,,,,,0.933393637339274,9.191492557525635,4.410000244776408,,3.764684279759725,,,1.016808032989502
140,12.567751526662184,8.243760188420614,7.312543789545695,,,,,1.396824598312378,11.775683655093113,6.876667340596517,,4.832787990570068,,,0.09934248588979244
141,18.66375739420967,10.234590768814087,8.937828063964844,,,,,1.2967627048492432,14.83508601412177,8.847099304199219,,5.938395977020264,,,0.04959073290228844
142,19.26271924328673,7.667607069015503,7.667607069015503,,,,,,12.156382977962494,6.855000376701355,,5.301382601261139,,,
143,19.370494703978213,11.531980514526367,9.650161425272623,,,,,1.8818190892537434,16.507456046839554,8.253333806991577,,7.795213619867961,,,0.45890861998001736
144,19.949037430880676,4.011443353878955,4.010000387827556,,,,,0.004328898154199123,10.751089399447665,5.683333555857341,,5.06652847925822,,,0.003682092996314168
145,21.20265725619346,12.843074252208075,12.774150530497232,,,,,0.20677116513252258,47.84570843974749,22.33195432027181,,25.400004069010418,,,0.34125015139579773
146,21.510504334035822,17.03146743774414,17.03146743774414,,,,,,51.15287780761719,23.07000160217285,,28.082876205444336,,,
147,16.361894026240723,20.056740688509308,19.461856365203857,,,1.1897686466109008,,,37.65697120598634,18.320512294769287,,18.753442764282227,1.1660322938696481,,
148,10.258930162219068,16.441047191619873,14.438404321670532,,,,,8.010571479797363,72.67637062072754,23.43244504928589,,45.502625942230225,,,14.965198516845703
149,11.938065019341717,8.5,8.5,,,,,,15.60868215560913,7.846666653951009,,7.762015501658122,,,
150,8.774245284033922,15.34173047542572,14.320076704025269,,,,,4.086615085601807,50.169435024261475,16.41990566253662,,31.73371171951294,,,8.063270568847656
151,14.186826280025615,8.024333079655966,5.534271240234375,,,,,3.7350927591323853,38.22621281941732,9.807827631632486,,22.4580504099528,,,8.940502166748047
152,19.958369679812115,16.726581573486328,16.726581573486328,,,,,,48.967071533203125,19.44637680053711,,29.520694732666016,,,
153,13.495305963291141,6.595699307927862,6.555999755859375,,,0.16278831660747528,,0.017854721867479384,11.303179285349325,6.119999885559082,,5.150975704193115,0.12661312520503998,,0.01720267639029771
154,11.818350077051141,5.799466776351134,5.746666669845581,,,,,0.15840031951665878,10.146915017316738,5.5966668128967285,,4.498645146687825,,,0.15480917319655418
155,12.432932221011972,5.940947264432907,5.74666690826416,,,,,0.19428035616874695,10.308958346645037,5.596666971842448,,4.522545178731282,,,0.18974619607130686
156,20.985734407172888,10.765214988961816,8.460111618041992,,,,,2.3051033709198236,35.75129499596854,10.252499659856161,,21.19006848335266,,,4.308726852759719
157,12.285032552997258,6.21999979019165,6.21999979019165,,,,,,10.922685265541077,6.134999632835388,,4.7876856327056885,,,
158,10.38877140199604,1.8125001192092896,1.8125001192092896,,,,,,6.693342864513397,3.7825000286102295,,2.9108428359031677,,,
159,14.816681541547414,4.155954957008362,4.155954957008362,,,,,,40.193626403808594,10.860000133514404,,29.33362627029419,,,
160,16.724067863450106,3.8750898241996765,3.8750898241996765,,,,,,36.61737942695618,10.56000018119812,,26.057379245758057,,,
161,14.58565393646393,4.9059858322143555,4.9059858322143555,,,,,,20.22006845474243,6.3250004053115845,,13.895068049430847,,,
162,15.8243901180583,5.063371658325195,5.063371658325195,,,,,,32.60567092895508,9.350000381469727,,23.25567054748535,,,
163,12.907135189690436,3.4342982172966003,3.313330332438151,,,0.3629036545753479,,,6.9477319419384,3.423330783843994,,3.421316703160604,0.30925336480140686,,
164,15.954430707320634,4.089541960507631,3.613996744155884,,,0.11491406708955765,,0.4180881828069687,9.77469327300787,4.163996458053589,,5.107013940811157,0.1287962943315506,,0.4392847269773483
165,11.327022077536588,5.450622875243425,3.7536239624023438,,,1.6969989128410816,,,11.538373935967684,4.468623876571655,,5.170677900314331,1.8990721590816975,,
166,13.063696605373181,8.180896711349487,6.112716102600098,,,5.170451521873474,,,13.209497594833374,5.131999492645264,,6.636974334716797,3.6013094186782837,,
167,15.07191085596549,6.7369420528411865,6.7369420528411865,,,,,,15.042689800262451,6.7606072425842285,,8.282082557678223,,,
168,15.42830758295928,7.2086427211761475,7.2086427211761475,,,,,,14.1354421377182,6.700267791748047,,7.435174345970154,,,
169,15.707397337125933,6.9565978604368865,6.9508373737335205,,,,,0.011520973406732082,13.401646669954062,6.70017409324646,,6.695712089538574,,,0.011520974338054657
170,17.3050549914544,10.835086822509766,10.835086822509766,,,,,,18.003451665242512,8.75,,9.253451665242514,,,
171,13.141958352911564,12.198182423909506,12.198182423909506,,,,,,78.04063860575359,18.385338465372723,,59.65530014038086,,,
172,7.13584744065185,18.755592664082844,18.755592664082844,,,,,,83.95717875162761,24.75666618347168,,59.20051256815592,,,
173,3.2988131033529435,18.904939969380695,18.904939969380695,,,,,,73.57980664571126,24.626667022705078,,48.95313962300619,,,
174,7.612927500571337,28.048449913660686,21.644697825113933,,,9.60562813282013,,,105.49841117858887,26.232384999593098,,69.68591499328613,14.370166778564453,,
175,4.175617440030871,17.399083375930786,17.399083375930786,,,,,,63.37462568283081,21.75499939918518,,41.61962628364563,,,
176,13.097622954716519,15.19578766822815,10.636292266845704,,,5.699369251728058,,,20.008238554000854,8.518004989624023,,8.130948162078857,4.199106752872467,,
177,12.864252617257954,20.81941700898684,10.567114756657528,,,11.106660773356756,,,25.856788506874672,8.885295427762545,,8.80461678138146,8.847449322541555,,
178,14.530606064284724,10.168318827946981,9.851219971974691,,,3.8051862716674805,,,17.640388866265614,9.019985993703207,,8.401934266090393,2.6216232776641846,,
179,18.850486118316823,19.30918749173482,16.231669584910076,,,,,6.155035813649495,35.06997700532278,13.422224044799805,,19.34553623199463,,,4.604433457056682
180,18.166593612004565,21.54997615814209,16.94800090789795,,,,,11.504938125610352,40.32326898574829,15.338000297546387,,19.7706955909729,,,13.03643274307251
181,12.938279645985698,16.397194576263427,16.397194576263427,,,,,,55.940286540985106,18.417023849487304,,37.523262691497806,,,
182,8.818392104335892,13.661477088928223,13.661477088928223,,,,,,18.172312259674072,10.951477527618408,,7.220834732055664,,,
183,6.803688684281282,15.787351791746914,15.597501277923584,,,0.2531340184311072,,,31.258362524735276,16.954281330108643,,14.125236511230469,0.23845957786155245,,
184,4.336224014637917,10.725000381469727,10.725000381469727,,,,,,28.154568195343018,14.053781986236572,,14.100786209106445,,,
185,11.628818059332707,2.7500003576278687,2.7500003576278687,,,,,,11.709206342697144,4.540000677108765,,7.169205665588379,,,
186,12.189382015294031,14.53437328338623,14.53437328338623,,,,,,28.877551714579266,15.93000062306722,,12.947551091512045,,,
187,12.17513392589871,13.246130466461182,13.246130466461182,,,,,,27.83922815322876,14.968261241912842,,12.870966911315918,,,
188,14.866897693704862,15.919509569803873,15.919509569803873,,,,,,62.97166124979655,28.170000076293945,,34.8016611735026,,,
189,13.244947317458593,11.728805541992188,11.728805541992188,,,,,,46.69437289237976,19.985002994537354,,26.709369897842407,,,
190,7.367872592819225,17.192106246948242,17.192106246948242,,,,,,96.13439178466797,23.81999969482422,,72.31439208984375,,,
191,12.75615069225766,24.10363268852234,16.670002460479736,,,7.4336302280426025,,,30.246539771556854,13.57000207901001,,10.864407539367676,5.812130153179169,,
192,16.587725268619753,16.571111291646957,15.980001211166382,,,1.1822201609611511,,,28.67581617832184,18.60110378265381,,9.46645700931549,1.2165107727050781,,
193,18.188039069763438,29.436420069800484,18.485253651936848,,,12.320062220096588,,,49.86611270904541,22.656282636854385,,14.399351014031303,14.411788940429688,,
194,13.881148663246686,15.409725189208984,15.409725189208984,,,,,,40.78050231933594,20.869731903076172,,19.910770416259766,,,
195,16.27975412480251,14.869505246480307,14.869505246480307,,,,,,30.364208539326984,15.68075974782308,,14.683448791503906,,,
196,14.50606817707253,16.068081378936768,16.068081378936768,,,,,,24.224724173545837,13.160000562667847,,11.06472361087799,,,
197,18.215456576702035,27.546105659008028,17.45869846343994,,,11.208230217297872,,,45.27013139724731,21.598681259155274,,13.3151216506958,11.507031652662489,,
198,6.652096237680389,14.572226388113839,14.572226388113839,,,,,,30.546629905700684,15.722226824079241,,14.824403081621442,,,
199,21.702350915401478,19.98707866668701,16.7071533203125,,,,,6.559850692749023,36.16081698735555,13.860644340515137,,19.821250279744465,,,4.9578447341918945
200,38.004887589932494,24.925206707371398,24.924460220336915,,,0.0037324351724237204,,,60.04727018559352,27.73998603820801,,32.30641059875488,0.004367743153125048,,
201,12.640553611225354,8.15999984741211,8.15999984741211,,,,,,14.531195640563965,7.522500395774841,,7.0086952447891235,,,
202,13.624884271444353,8.160000324249268,8.160000324249268,,,,,,18.197824001312256,8.244999885559082,,9.952824115753174,,,
203,18.26137726301348,8.477235794067383,8.160001277923584,0.6344690322875977,,,,,18.300426214933395,8.08000135421753,0.6661924719810486,9.887328624725342,,,
204,27.76015286514205,25.813700020313263,22.832084110804967,,,3.478551894426346,,,35.46687134834273,21.529999801090785,,12.396001883915492,1.7976812738925219,,
205,9.890397425157964,17.804800206964668,17.804800206964668,,,,,,36.01498881253329,18.048104893077504,,17.96688391945579,,,
207,22.43051756934948,25.64745330810547,25.64745330810547,,,,,,50.080678939819336,28.635292053222656,,21.44538688659668,,,
208,23.63858472997075,25.836257934570312,25.836257934570312,,,,,,48.004594802856445,27.412245750427246,,20.5923490524292,,,
218,45.13333596397176,32.82768767163383,24.076150855632743,,,11.708137091677132,,,54.7825031867533,24.83351638100364,,21.46602461073134,11.348827801443434,,
219,35.90471623565927,17.00038496653239,17.00038496653239,,,,,,34.91696580251058,17.879674593607586,,17.037291208902996,,,
220,14.519826862139066,14.999711453914642,14.08276379108429,,,1.8338953256607056,,,23.555387679487467,12.842764019966125,,9.531731128692627,2.3617850616574287,,
221,12.854525932652052,9.960001627604166,9.960001627604166,,,,,,19.860603014628094,10.643335024515787,,9.217267990112305,,,
222,17.81363798677859,14.626651446024576,14.626651446024576,,,,,,26.872047742207844,14.353315353393555,,12.518732388814291,,,
223,9.507934737325366,7.50999903678894,7.50999903678894,,,,,,14.588334560394287,8.939999103546143,,5.6483354568481445,,,
224,8.653921220504802,7.149999141693115,7.149999141693115,,,,,,17.26837968826294,9.98499870300293,,7.28338098526001,,,
225,9.147335020026981,8.985191106796265,7.762500524520874,2.4453811645507812,,,,,21.454704761505127,11.197500228881836,3.8412861824035645,8.336561441421509,,,
226,4.678729392313422,3.4099998076756797,3.4099998076756797,,,,,,10.506810625394186,5.856666564941406,,4.650144060452779,,,
227,6.363973747810799,3.670001665751139,3.670001665751139,,,,,,8.572633504867554,3.726667801539103,,4.84596570332845,,,
228,19.33003501408745,41.7130329310894,37.26700496673584,,,4.446027964353561,,,64.01286834478378,39.15163516998291,,20.564101696014404,4.2971314787864685,,
229,21.45985112597444,22.94973850250244,22.94973850250244,,,,,,63.89721059799194,28.1101336479187,,35.78707695007324,,,
230,23.42501424223537,20.044784545898438,20.044784545898438,,,,,,65.68235778808594,26.25865936279297,,39.42369842529297,,,
231,24.205726754385623,15.83575177192688,14.898053487141928,2.8130948543548584,,,,,40.26429986953735,17.00174363454183,2.853053569793701,22.311538378397625,,,
232,10.370384287921498,5.0594136118888855,5.0594136118888855,,,,,,8.526358664035797,4.662500262260437,,3.86385840177536,,,
233,16.14883445349035,14.133894920349121,9.57342529296875,4.560469627380371,,,,,47.049813747406006,13.729999542236328,4.884366512298584,28.435447692871094,,,
234,14.270382685420081,14.434839129447937,14.434839129447937,,,,,,43.22115769982338,18.540188163518906,,24.680969536304474,,,
235,13.005600538919134,7.399999618530273,7.399999618530273,,,,,,9.19278171658516,6.449999690055847,,2.742782026529312,,,
236,13.14236955184501,4.8290605545043945,4.8290605545043945,,,,,,40.91688919067383,9.028656005859375,,31.888233184814453,,,
237,12.477746271130691,3.700000524520874,3.700000524520874,,,,,,8.317788124084473,4.25,,4.067788124084473,,,
238,15.177624117900894,4.747530988795916,4.747430920600891,0.00020013639004901052,,,,,30.524290119545185,7.000000238418579,0.00025017050211317837,23.52416479587555,,,
239,14.235211771850452,9.563071638345718,8.288955390453339,2.5482324957847595,,,,,30.984576255083084,10.131250143051147,2.7292149662971497,19.488718628883362,,,
240,6.1818461405954706,11.651614824930826,11.651614824930826,,,,,,36.92743174235026,14.356669743855795,,22.570761998494465,,,
241,11.006530131463974,9.03159475326538,9.03159475326538,,,,,,23.61236083507538,12.011594772338867,,11.600766062736511,,,
242,7.6574778368019345,8.619999885559082,8.619999885559082,,,,,,18.94264316558838,9.819999694824219,,9.12264347076416,,,
243,16.19431850465867,18.657567977905273,11.765251159667969,,,6.892316818237305,,,42.416972398757935,12.827500820159912,,21.5195369720459,8.069934606552124,,
244,17.719930777220146,12.40826650056988,12.118321418762207,0.579890163615346,,,,,35.26443620212376,11.855000734329224,0.5798901654779911,23.119490385055542,,,
245,8.751481799478515,9.988094051678976,9.675028483072916,0.9391967058181763,,,,,22.012322306632996,11.131695747375488,0.5117002725601196,10.710059801737467,,,
246,12.1566656435673,9.40999984741211,9.40999984741211,,,,,,20.371527194976807,10.795000076293945,,9.576527118682861,,,
247,16.514522422598,9.453960180282593,9.453960180282593,,,,,,38.17348897457123,10.998940706253052,,27.174548268318176,,,
248,15.259368735464111,10.755884647369385,10.755884647369385,,,,,,82.24491310119629,15.805000305175781,,66.43991279602051,,,
249,14.079369923735316,8.748486995697021,8.748486995697021,,,,,,21.950644302368165,9.30759129524231,,12.643053007125854,,,
250,14.957358169261443,3.486540605624517,3.45666766166687,0.08961883187294006,,,,,10.75872814655304,4.290000836054484,0.12994730472564697,6.425411542256673,,,
251,10.062055446473067,4.231428521020072,4.231428521020072,,,,,,10.924540042877197,4.8528571128845215,,6.071682929992676,,,
252,11.549651717218312,2.789999783039093,2.789999783039093,,,,,,8.74111533164978,4.032499551773071,,4.708615779876709,,,
254,10.969405117977557,4.460000197092692,4.460000197092692,,,,,,12.440020481745401,5.621666828791301,,6.818353652954102,,,
255,11.411225173707,4.124559283256531,4.124559283256531,,,,,,14.4789879322052,6.324999690055847,,8.153988242149353,,,
256,10.072036583014254,4.2617647227118995,4.2617647227118995,,,,,,12.256226231070126,5.570588252123664,,6.6856379789464615,,,
257,9.759502795463638,10.509999910990397,10.509999910990397,,,,,,23.871673901875813,11.339999834696451,,12.531674067179361,,,
258,9.961156112468,11.027774766087532,10.559999585151672,1.8711007237434387,,,,,23.461561508476734,11.352856278419495,2.313360959291458,11.530364990234375,,,
259,15.08015455189751,10.583749771118164,10.583749771118164,,,,,,19.185617446899414,8.482499122619629,,10.703118324279785,,,
260,10.822016332534231,7.990975856781006,6.609999895095825,,,2.7619519233703613,,,12.512067198753357,7.192501187324524,,3.7744020819664,3.0903278589248657,,
261,11.256080319591154,7.281279563903809,6.819996356964111,,,1.3838496208190918,,,14.558606227238974,7.053329944610596,,6.875130494435628,1.890437364578247,,
262,14.801438252295478,8.140383243560791,8.140383243560791,,,,,,42.410037994384766,11.71500015258789,,30.695037841796875,,,
263,16.19654901050081,13.658793091773987,12.92272663116455,1.472132921218872,,,,,53.030955135822296,14.070001602172852,0.736066460609436,38.59292030334473,,,
264,11.901863834508902,7.760000824928284,7.760000824928284,,,,,,13.282440900802612,7.877500653266907,,5.404940247535706,,,
265,10.389781130643126,11.576338609059652,9.92666753133138,,,2.4745066165924072,,,19.84455951054891,12.200000445048014,,5.724445660909017,2.8801701068878174,,
266,9.725095562244483,7.731428691319057,7.731428691319057,,,,,,14.086875302450997,9.331428255353655,,4.755447047097342,,,
267,18.383996880190928,10.859997749328613,10.859997749328613,,,,,,16.354389190673828,12.089998245239258,,4.26439094543457,,,
268,19.092419883030214,10.697500705718994,10.697500705718994,,,,,,17.460006713867188,12.307499885559082,,5.1525068283081055,,,
269,10.821048852110373,9.926661491394043,9.926661491394043,,,,,,18.632731437683105,12.159994125366211,,6.4727373123168945,,,
270,19.73188135458908,5.145000338554382,5.145000338554382,,,,,,13.256655097007751,5.355000138282776,,7.901654958724976,,,
271,11.34884369790245,8.609999656677246,8.609999656677246,,,,,,26.144156455993652,11.0600004196167,,15.084156036376953,,,
272,5.614757241482738,6.0849995613098145,6.0849995613098145,,,,,,17.84428358078003,7.924999713897705,,9.919283866882324,,,
273,10.48473758758426,30.384460926055908,23.67755126953125,,,6.706909656524658,,,88.15121650695801,32.17827224731445,,46.517520904541016,9.455423355102539,,
274,9.747354329093742,23.149101813634235,21.839181264241535,,,3.9297616481781006,,,75.51849826176961,31.523338317871094,,42.181148529052734,5.4420342445373535,,
275,12.542421090136886,5.090140183766683,5.090140183766683,,,,,,16.201828638712566,7.730001449584961,,8.471827189127604,,,
276,12.722786060738676,11.5,11.5,,,,,,23.302407264709473,13.59000015258789,,9.712407112121582,,,
277,12.8961807963733,5.390978634357452,5.083549499511719,0.30742913484573364,,,,,14.60062301158905,7.890000343322754,0.7286070585250854,5.982015609741211,,,
278,8.032054373069782,2.6250001192092896,2.6250001192092896,,,,,,9.8557790517807,6.045000314712524,,3.8107787370681763,,,
279,8.011491869904274,3.7082661855965853,3.350000500679016,,,0.4776875798900922,,,8.682766132988036,6.4300010204315186,,1.7196287214756012,0.7108485214412212,,
280,6.752005967327487,9.061190366744995,9.061190366744995,,,,,,19.146206736564636,11.250749588012695,,7.895457148551941,,,
281,5.176246044101242,9.214807391166687,8.308202266693115,1.8132102489471436,,,,,18.410999178886414,10.053200721740723,3.4378464221954346,6.638875246047974,,,
282,17.834023772146057,10.697505950927734,10.697505950927734,,,,,,22.67097568511963,10.932506084442139,,11.73846960067749,,,
283,14.041657266358973,11.14499807357788,11.14499807357788,,,,,,24.590007781982422,13.239997386932373,,11.350010395050049,,,
284,17.402394987075258,8.420372724533081,8.420372724533081,,,,,,17.124436855316162,9.975372314453125,,7.149064540863037,,,
285,16.363613820364627,9.838078518708548,8.863306522369385,,,1.4621579945087433,,,14.95093286037445,9.139324506123861,,4.642961184183757,1.7529707551002502,,
286,18.08142775754798,8.538000774383544,8.538000774383544,,,,,,16.06130599975586,9.424001121520996,,6.637304878234863,,,
287,24.160339488103286,13.397392749786377,13.397392749786377,,,,,,24.72992467880249,13.377498626708984,,11.352426052093506,,,
288,19.46417099099201,8.549999237060547,8.549999237060547,,,,,,22.47211790084839,11.474998950958252,,10.997118949890137,,,
289,16.82747496223971,4.388404369354248,4.388404369354248,,,,,,22.323576748371124,6.130000174045563,,16.19357657432556,,,
290,20.210563486138902,12.559999465942383,12.559999465942383,,,,,,16.954281091690063,13.1899995803833,,3.7642815113067627,,,
291,22.80435837521392,7.3955323696136475,7.3955323696136475,,,,,,22.518190503120422,7.706250071525574,,14.811940431594849,,,
292,14.181590656839656,9.570110321044922,9.570110321044922,,,,,,49.80304431915283,12.960000038146973,,36.84304428100586,,,
293,6.5317510526998515,3.549999713897705,3.549999713897705,,,,,,11.046157360076904,6.1399993896484375,,4.906157970428467,,,
295,17.33364187205667,9.313591162363688,9.313591162363688,,,,,,33.17353121439616,12.033332188924154,,21.140199025472004,,,
296,17.33364187205667,8.9408597946167,8.9408597946167,,,,,,26.05802607536316,11.892499923706055,,14.165526151657104,,,
297,17.401936053584915,9.357552289962769,9.357552289962769,,,,,,31.753051698207855,12.346250414848328,,19.406801283359528,,,
298,13.967229931886475,8.023161615644183,6.057005235127041,,,4.587698221206665,,,20.847210390227183,7.717443908963885,,10.656526855060033,5.77089246114095,,
299,13.057903564694461,3.222500801086426,3.222500801086426,,,,,,10.825707256793976,5.997501254081726,,4.82820600271225,,,
300,12.864071338221173,3.284999966621399,3.284999966621399,,,,,,12.879024505615234,6.375000238418579,,6.504024267196655,,,
301,18.655804580565068,10.03500247001648,10.03500247001648,,,,,,18.432725310325623,10.147404432296753,,8.28532087802887,,,
302,16.788388115283496,14.563018798828125,14.563018798828125,,,,,,26.5953311920166,11.99000072479248,,14.605330467224121,,,
303,29.99914864061148,19.893073081970215,19.893073081970215,,,,,,91.5536756515503,23.917494773864746,,67.63618087768555,,,
304,15.292362568802787,14.067721843719482,14.067721843719482,,,,,,25.051671504974365,13.809958934783936,,11.24171257019043,,,
305,24.65788773501651,20.15999984741211,20.15999984741211,,,,,,30.447787284851074,13.550000190734863,,16.89778709411621,,,
306,12.828382286807107,9.709993362426758,9.709993362426758,,,,,,22.48133373260498,11.414993286132812,,11.066340446472168,,,
307,16.034160928026086,11.973332722981771,11.973332722981771,,,,,,24.09324359893799,14.126666386922201,,9.966577212015787,,,
308,9.77206768658957,11.555001258850098,11.555001258850098,,,,,,24.587519645690918,12.985001564025879,,11.602518081665039,,,
309,15.856691609172657,13.068000030517577,13.068000030517577,,,,,,33.21203670501709,18.156000328063964,,15.056036376953125,,,
310,25.325271597936133,11.239999771118164,11.239999771118164,,,,,,22.913389205932617,12.579999923706055,,10.333389282226562,,,
311,26.598955564319684,10.755000114440918,10.755000114440918,,,,,,20.18770408630371,10.734999656677246,,9.452704429626465,,,
312,65.88521889463094,4.5544454786512585,4.5544454786512585,,,,,,18.34179835849338,7.943334738413493,,10.398463620079887,,,
313,84.11122456321408,4.270000362396241,4.270000362396241,,,,,,19.36831216812134,8.770000743865968,,10.598311424255371,,,
314,42.97737783736352,5.312307432293892,5.210000038146973,0.10230739414691925,,,,,31.02920699119568,11.40999984741211,0.4296910762786865,19.189516067504883,,,
315,34.22502942946419,4.549999713897705,4.549999713897705,,,,,,16.89988136291504,9.260000228881836,,7.639881134033203,,,
316,27.45431008894335,6.811066091060638,5.349999964237213,2.9221322536468506,,,,,20.130149245262146,10.019999980926514,5.382874965667725,7.41871178150177,,,
317,10.188051037455951,3.79771555463473,3.7599998712539673,0.22629410028457642,,,,,8.587739035487175,4.241666674613953,0.25309208035469055,4.303890347480774,,,
318,10.003873963276025,3.4860963821411133,3.1100001335144043,0.376096248626709,,,,,8.51969313621521,3.6600000858306885,0.5453395843505859,4.3143534660339355,,,
319,10.571670287350411,3.420984447002411,3.1100001335144043,0.3109843134880066,,,,,12.19254732131958,4.320000171661377,0.4509272575378418,7.421619892120361,,,
320,9.541039138504207,3.3200000127156577,3.3200000127156577,,,,,,9.392772833506266,4.75,,4.642772833506267,,,
321,10.844950977516364,7.299999237060547,7.299999237060547,,,,,,12.851606488227844,7.054999589920044,,5.7966068983078,,,
322,9.005104476931443,5.7838515894753595,5.7838515894753595,,,,,,11.134910413197108,6.640700953347342,,4.494209459849766,,,
323,9.66474280683831,4.735286845101251,4.735286845101251,,,,,,10.597085926267836,5.263419230779012,,5.333666695488824,,,
324,9.99585564645085,4.070000219345093,4.070000219345093,,,,,,10.374382925033569,4.446186971664429,,5.928195953369141,,,
325,12.822326704019634,5.900001049041748,5.900001049041748,,,,,,9.916203022003174,5.200000762939453,,4.716202259063721,,,
326,13.515537858234365,11.095536589622498,10.699999570846558,0.7910740375518799,,,,,18.50247210264206,10.579999685287476,0.7870787382125854,7.528933048248291,,,
327,13.06180714362553,23.31453558150679,23.309999465942383,0.004536115564405918,,,,,41.84965332131833,25.60999870300293,0.005636292509734631,16.234018325805664,,,
328,10.375505119463911,18.617999935150145,18.617999935150145,,,,,,37.20774250030517,20.900182819366456,,16.30755968093872,,,
329,7.665487358911875,13.368154048919678,11.136672973632812,6.694443225860596,,,,,33.12921031316122,14.708976745605469,4.838918209075928,16.8072608311971,,,
330,11.37518613567314,10.850000381469727,10.850000381469727,,,,,,30.364996910095215,15.325000286102295,,15.03999662399292,,,
331,21.861739975208028,31.400818347930908,26.331300735473633,5.069517612457275,,,,,77.54105949401855,28.6299991607666,4.182102203369141,44.72895812988281,,,
332,16.303652815746762,16.937499046325684,16.937499046325684,,,,,,33.87270641326904,15.775362014770508,,18.097344398498535,,,
333,15.721053170096715,14.513687372207642,14.513687372207642,,,,,,28.04237461090088,13.502494096755981,,14.539880514144897,,,
334,17.73895791847907,14.855000495910645,14.855000495910645,,,,,,27.508402824401855,13.249927520751953,,14.258475303649902,,,
335,13.685555620972323,13.924363454182943,11.783333778381348,6.423089027404785,,,,,23.857164065043133,12.15666643778483,7.207303047180176,9.298063278198242,,,
336,10.254856809942497,4.365441536903381,4.365441536903381,,,,,,9.651262021064758,4.179026436805725,,5.472235584259034,,,
337,25.508082498269673,14.104424953460693,11.97249984741211,,,2.131925106048584,,,25.818800270557404,11.511106014251709,,12.117409706115723,2.190284550189972,,
338,16.48615504070243,11.575884938240051,10.608089447021484,,,,,1.2903939882914226,36.74261522293091,11.510434985160828,,22.243464469909668,,,3.984954357147217
339,13.563703711383353,20.311726252237957,20.311726252237957,,,,,,57.51647186279297,20.97821267445882,,36.538259188334145,,,
340,20.104488684496857,21.460813656449318,20.76212978363037,,,0.9315784970919291,,,60.99329608678818,21.790300369262695,,36.97548580169678,2.97001322110494,,
341,16.74277091831376,19.96586618423462,19.393634796142578,,,0.9537189801534017,,,46.47702536582947,17.058747673034667,,27.636273765563963,2.970006545384725,,
342,21.491012237004096,14.832765102386475,14.832765102386475,,,,,,34.20723533630371,18.91879940032959,,15.288435935974121,,,
343,18.58282190897356,21.496384620666504,20.562973499298096,3.733644485473633,,,,,40.79460549354553,18.52037739753723,2.468568801879883,21.65708589553833,,,
344,12.580735972793807,10.056123765185475,9.899998188018799,0.31225115433335304,,,,,21.02176035568118,9.929998397827148,0.4215390905737877,10.880992412567139,,,
345,13.11959799991629,10.763508677482605,10.26710557937622,1.985612392425537,,,,,19.464370846748352,9.891249656677246,2.15895938873291,9.033381342887878,,,
346,11.973542232242986,7.6576159477233885,7.6576159477233885,,,,,,13.658988237380981,7.602247285842895,,6.056740951538086,,,
347,16.658882444235353,10.806062718232473,10.036606152852377,0.9630802273750305,,1.3452894687652588,,,21.366804907719295,7.926667054494222,0.18135926127433777,12.808865229288736,1.712458610534668,,
348,17.41143366742542,10.712966513633727,7.813143157958985,1.2542449235916138,,4.414957284927368,,,19.018687903881073,7.095077228546143,0.5076705813407898,9.305783987045288,4.193820953369141,,
349,16.774931696856772,17.32549810409546,17.32549810409546,,,,,,68.1891975402832,18.092824935913086,,50.09637260437012,,,
350,21.568604329893812,8.41484972089529,7.554875016212463,,,0.859974704682827,,,31.77081774175167,10.061371564865112,,19.20274043083191,2.5067057460546494,,
351,10.586013920179587,3.835088769594828,3.835088769594828,,,,,,7.667797088623047,3.748422145843506,,3.919374942779541,,,
352,5.906649222425038,4.159999847412109,4.159999847412109,,,,,,12.186829566955566,4.710000038146973,,7.476829528808594,,,
353,4.01055298678589,3.9100003242492676,3.9100003242492676,,,,,,9.459320545196533,3.8600001335144043,,5.599320411682129,,,
354,6.309774942112213,3.924127133563161,3.797499716281891,0.25325483456254005,,,,,12.668613817542791,4.804992914199829,0.3672195002436638,7.68001115322113,,,
355,6.754054797164191,5.115116238594055,5.115116238594055,,,,,,11.00975388288498,4.580005466938019,,6.4297484159469604,,,
356,5.841755665556452,9.970991134643555,9.970991134643555,,,,,,25.48340670267741,10.776668548583984,,14.706738154093424,,,
357,7.877149058411429,9.040651381015778,9.040651381015778,,,,,,43.93661284446716,12.758525371551514,,31.17808747291565,,,
358,6.566061795266728,7.198173880577087,7.198173880577087,,,,,,19.6563777923584,9.59999966621399,,10.05637812614441,,,
359,5.074886578931783,2.3644444147745767,2.3644444147745767,,,,,,5.728062629699707,2.810000287161933,,2.918062342537774,,,
360,3.4102603907765427,1.940000057220459,1.940000057220459,,,,,,6.044033686319987,2.43666664759318,,3.6073670387268066,,,
361,18.122955648613928,14.679501608014107,12.451297998428345,,,2.6738443315029143,,,32.49424850195646,17.06811300913493,,12.195066849390665,3.8772823721170426,,
362,7.827337563028984,3.5176338344812392,2.7600001811981203,,,0.7576336532831192,,,7.931287895701826,2.8800000667572023,,4.1941968441009525,0.8570909848436713,,
363,2.828503876977855,,,,,,,,,,,,,,
364,19.192387199106154,29.60536003112793,21.47620964050293,,,,,8.129150390625,153.3726921081543,27.228864669799805,,108.15106964111328,,,17.99275779724121
365,7.516751470162623,2.816666523615519,2.816666523615519,,,,,,9.363115866978964,4.150000015894572,,5.213115851084392,,,
366,11.908253855217168,15.176839590072632,15.176839590072632,,,,,,53.46748387813568,17.063215911388397,,36.404267966747284,,,
368,6.097253369204154,5.679471901484898,5.679471901484898,,,,,,14.608800615583148,6.221426623208182,,8.387373992374965,,,
369,20.180275836025757,20.397223472595215,20.397223472595215,,,,,,106.05419206619263,26.50085687637329,,79.55333518981934,,,
370,7.691718006151587,8.806942000985146,8.710000038146973,0.19388392567634583,,,,,21.408197820186615,9.735000133514404,0.29809653759002686,11.524149417877197,,,
371,6.416645301297668,8.667772769927979,8.667772769927979,,,,,,21.090126514434814,9.405001163482666,,11.685125350952148,,,
372,5.990466153207937,14.309998512268066,14.309998512268066,,,,,,33.84751796722412,15.109997749328613,,18.737520217895508,,,
373,8.363381223829027,13.02149829864502,13.02149829864502,,,,,,26.136289405822755,12.964309310913086,,13.171980094909667,,,
374,8.794681960675259,8.582223256429037,8.582223256429037,,,,,,21.580284754435223,10.183544370863173,,11.396740383572048,,,
375,10.084898955268267,9.079499244689941,9.079499244689941,,,,,,18.04302215576172,8.830000400543213,,9.213021755218506,,,
376,10.902705636406651,11.879966934521994,11.390581448872885,,,2.9363129138946533,,,31.28944218158722,11.867077827453613,,18.947808742523193,2.8473336696624756,,
377,13.171298850700438,16.318555545806884,13.610000610351562,,,6.771387338638306,,,24.00101194381714,10.673360443115234,,11.33320426940918,4.9861180782318115,,
378,15.399828429087416,16.343316555023193,12.890597343444824,,,3.452719211578369,,,28.538277864456177,11.805001258850098,,13.647332191467285,3.085944414138794,,
379,17.240951077235167,15.537256240844727,15.537256240844727,,,,,,35.70675086975098,13.922872543334961,,21.783878326416016,,,
380,9.11605858330657,8.785886764526367,8.785886764526367,,,,,,17.86996729033334,8.660714319774083,,9.209252970559257,,,
381,13.559390991959095,13.140263795852661,13.140263795852661,,,,,,25.233811855316162,12.175548076629639,,13.058263778686523,,,
382,13.424882508466979,15.839871088663736,15.839871088663736,,,,,,32.21093781789144,14.210464477539062,,18.000473340352375,,,
383,9.935915557337726,10.070790350437164,8.81980299949646,2.5019747018814087,,,,,19.147592186927795,9.03408432006836,3.419365406036377,8.403825163841248,,,
384,10.199749244094864,11.90709493557612,11.712591807047525,1.1670187711715698,,,,,30.209815442562103,14.426687399546305,1.533582329750061,15.527530988057455,,,
385,10.845168114491315,12.789070129394531,11.7516508102417,2.074838638305664,,,,,29.66018259525299,13.595001220703125,2.9133007526397705,14.60853099822998,,,
387,18.887181604926045,7.9374998807907104,7.9374998807907104,,,,,,25.91368579864502,11.567500352859497,,14.346185445785522,,,
388,10.002886470482508,6.241106137633324,5.637500643730164,1.2072109878063202,,,,,16.897329106926918,7.445001006126404,1.851056843996048,8.52679967880249,,,
389,26.231165913991457,7.217755726405552,7.217755726405552,,,,,,21.911479541233607,10.784024102347237,,11.12745543888637,,,
390,29.738687365577125,7.396533375694638,7.396533375694638,,,,,,22.56655888330369,10.820562271844773,,11.745996611458915,,,
391,78.73749140737814,38.92226698548235,36.71104517536866,,,14.192023617638784,,,56.675954073435356,30.67450522701058,,24.028688938016593,12.66153177578341,,
392,7.340737231498877,13.992332234102136,13.992332234102136,,,,,,29.917503974016974,15.361518018385944,,14.555985955631032,,,
393,9.557298518654882,12.120770136515299,12.120770136515299,,,,,,27.146039962768555,12.216890335083008,,14.929149627685547,,,
394,8.23048988781419,13.563935961042132,13.563935961042132,,,,,,25.94850049700056,12.020000185285296,,13.928500311715263,,,
395,8.612786590931453,13.61026382446289,13.61026382446289,,,,,,31.67569351196289,15.229998111724854,,16.445695400238037,,,
396,7.773452444431828,15.01093832651774,15.01093832651774,,,,,,28.907748858133953,14.87267541885376,,14.035073439280191,,,
397,8.66168745135222,14.862497091293335,14.862497091293335,,,,,,28.9203999042511,13.802445411682129,,15.11795449256897,,,
398,13.96612358612674,16.50378157943487,14.378075122833252,2.8342752754688263,,,,,29.81064835190773,12.962372779846191,2.263134519259135,15.150924682617188,,,
399,12.299389310037942,5.809999465942383,5.809999465942383,,,,,,17.41752529144287,7.409999847412109,,10.007525444030762,,,
400,60.645356261655834,8.722575902938843,8.722575902938843,,,,,,27.721662282943726,12.409181118011475,,15.312481164932251,,,
401,68.77835346154535,8.139276331121271,8.139276331121271,,,,,,25.591196146878328,12.210588108409535,,13.380608038468795,,,
402,24.379436277195268,21.27735733985901,18.751667658487957,,,3.7885345220565796,,,43.1712691783905,20.462055206298828,,20.043590545654297,3.998435139656067,,
403,12.285188140772432,8.965593179066977,8.965593179066977,,,,,,20.20775318145752,8.89333438873291,,11.31441879272461,,,
404,10.581003878480459,14.310000896453857,14.310000896453857,,,,,,29.420412063598633,13.695772647857666,,15.724639415740967,,,
405,6.21816199888411,10.666412671407064,10.666412671407064,,,,,,24.258918444315594,10.916666984558105,,13.342251459757486,,,
406,6.64040121397287,10.536160729148172,10.536160729148172,,,,,,27.45450834794478,13.686159480701793,,13.768348867242986,,,
407,11.385173944767212,18.67849890391032,18.67849890391032,,,,,,35.86768341064453,17.124666849772137,,18.743016560872395,,,
408,14.909416615015896,31.359632775187492,20.096662998199463,,,11.26296977698803,,,58.08244448900223,25.192272663116455,,19.35410737991333,13.536064445972443,,
409,14.301471259577744,30.446966648101807,22.40425395965576,,,8.042712688446045,,,58.11778020858765,27.934999465942383,,20.417400360107422,9.765380382537842,,
410,14.023169023366364,19.571761667728424,16.805521488189697,,,2.766240179538727,,,55.288677990436554,25.423836708068848,,26.269752025604248,3.5950892567634583,,
411,3.884575830559227,8.031070406238237,7.599999189376831,0.862142433722814,,,,,19.157836362719536,8.645620266596476,0.8744587997595469,10.074986696243286,,,
412,4.132045149523843,11.818136006593704,10.295021057128906,1.523114949464798,,,,,27.686084151268005,12.540065288543701,1.9938958883285522,13.152122974395752,,,
413,4.545218429231684,14.70301878452301,14.62000036239624,0.16603684425354004,,,,,30.48651684820652,15.855000495910645,0.20250490307807922,14.530263900756836,,,
414,6.270994629416591,15.421914089471102,15.01530933380127,0.026670757681131363,,0.6687843402226766,,,29.467350950092076,15.0625244140625,0.034914445132017136,14.032559776306153,0.6088064511617025,,
415,10.987021474410444,19.493574678897858,16.64000129699707,2.8535733819007874,,,,,38.52061188220978,18.278749465942383,3.269142270088196,16.9727201461792,,,
416,6.40554311001551,18.277956008911133,18.277956008911133,,,,,,32.74771451950073,16.318271160125732,,16.429443359375,,,
417,6.233585828278165,15.480000019073486,15.480000019073486,,,,,,35.47375178337097,18.764999866485596,,16.708751916885376,,,
418,7.481028909262725,15.318203210830688,15.039700508117676,0.2785027027130127,,,,,40.39340400695801,21.139530181884766,0.5715732574462891,18.682300567626953,,,
420,7.969905061907063,16.715714134275913,16.65999984741211,,,0.055714286863803864,,,46.68774636089802,22.860000610351562,,23.7591495513916,0.06859619915485382,,
421,8.625523846694733,16.05999755859375,16.05999755859375,,,,,,31.86216926574707,18.14999771118164,,13.71217155456543,,,
423,11.571897643634369,22.28857719898224,19.946770350138348,0.9740136861801147,,6.0514068603515625,,,86.40872724850972,28.43666712443034,1.6947839260101318,54.886767069498696,7.561095237731934,,
425,13.09757370580643,20.967449863751728,20.55107879638672,1.2491132020950317,,,,,80.95709904034932,22.783259709676106,1.442054033279419,57.693154652913414,,,
426,6.124655519388999,11.010000705718994,11.010000705718994,,,,,,23.62436056137085,11.831896305084229,,11.792464256286621,,,
427,6.394735756320671,10.860000848770142,10.860000848770142,,,,,,16.451246082782745,10.407656908035278,,6.043589174747467,,,
432,15.543466155936427,5.591590106487274,5.591590106487274,,,,,,12.185978392759958,5.923690776030223,,6.262287616729736,,,
433,18.07009924158805,14.228243996699652,14.055187066396078,0.5191707909107208,,,,,91.15447724362214,16.58833360671997,0.5293413549661636,74.38969651858012,,,
434,26.132409092596284,9.322857175554548,9.322857175554548,,,,,,22.72382708958217,11.462857382638115,,11.260969706944056,,,
435,7.785100089310994,8.0600004196167,8.0600004196167,,,,,,16.6767315864563,11.1899995803833,,5.486732006072998,,,
436,18.727118384506035,8.041111946105957,8.041111946105957,,,,,,22.87993335723877,9.779999732971191,,13.099933624267578,,,
437,14.38570141582404,9.625482967921666,9.625482967921666,,,,,,26.512030329023087,11.798571450369698,,14.71345887865339,,,
439,7.821094302130876,16.536014318466187,14.134032726287842,,,,,4.8039631843566895,60.87957811355591,19.56209945678711,,36.855536460876465,,,8.923884391784668
440,11.45890294922485,18.921810309092205,18.50999704996745,,,0.6177198886871338,,,44.86674094200134,21.409381866455078,,22.96883201599121,0.7327905893325806,,
442,8.28480826664933,3.4776054322719574,3.4776054322719574,,,,,,8.153031766414642,3.925105392932892,,4.2279263734817505,,,
443,13.814121781106422,3.5599998235702515,3.5599998235702515,,,,,,9.462900638580322,3.9049999713897705,,5.557900667190552,,,
444,14.499743310761607,8.619999885559082,8.619999885559082,,,,,,19.83292229970296,9.166666666666666,,10.666255633036295,,,
445,10.522457492845326,12.789999723434448,12.789999723434448,,,,,,19.98415780067444,12.918164253234863,,7.065993547439575,,,
206,,14.8100004196167,14.8100004196167,,,,,,28.448347409566242,13.480000178019205,,14.968347231547037,,,
209,,4.21999994913737,4.21999994913737,,,,,,7.572064518928528,4.109999974568685,,3.462064544359843,,,
210,,4.439998785654704,4.439998785654704,,,,,,9.556099017461142,4.660000165303548,,4.896098852157593,,,
211,,5.260000109672546,5.260000109672546,,,,,,10.989398717880249,5.425000071525574,,5.564398646354675,,,
212,,5.260000228881836,5.260000228881836,,,,,,10.0491836865743,5.260000069936116,,4.789183616638184,,,
213,,4.659999847412109,4.659999847412109,,,,,,9.232000708580017,4.929999828338623,,4.302000880241394,,,
214,,4.345999431610108,4.345999431610108,,,,,,8.47376651763916,4.34599986076355,,4.12776665687561,,,
215,,6.030000925064087,6.030000925064087,,,,,,14.312930703163147,7.280000448226929,,7.032930254936218,,,
216,,8.833335240681967,8.833335240681967,,,,,,16.502036253611248,8.966670036315918,,7.535366217295329,,,
217,,18.244744300842285,18.244744300842285,,,,,,42.778809547424316,21.442272186279297,,21.33653736114502,,,
294,,3.513649106025696,3.513649106025696,,,,,,11.403274416923523,6.366150259971619,,5.037124156951904,,,
428,,4.55705909168019,4.55705909168019,,,,,,8.27355950018939,4.448351200889139,,3.82520829930025,,,
429,,4.660001158714294,4.660001158714294,,,,,,11.756561040878296,5.690001368522644,,6.066559672355652,,,
430,,6.4666666984558105,6.4666666984558105,,,,,,13.815568129221598,7.540000279744466,,6.275567849477132,,,
431,,12.225977733060047,12.224228096437884,0.19420966506004333,,,,,23.88925602092399,11.843815343873995,0.19992172718048096,12.043639580408732,,,
438,,2.5000003576278687,2.5000003576278687,,,,,,5.24423885345459,3.050000548362732,,2.194238305091858,,,
441,,17.105556699964737,17.105556699964737,,,,,,48.78400972154405,24.1888910929362,,24.595118628607857,,,
