EST_NO,gridcode,substrate_type,proportion_substrateType
1,1,Rock,0.0769700201469931
1,2,Mixed,0.020177488224962348
1,3,Sand,0.05839578773320411
1,4,Mud,0.8307729361782948
2,1,Rock,0.2190271694684964
2,2,Mixed,0.2960838922018217
2,3,Sand,0.01888443302728528
2,4,Mud,0.413964890237878
3,1,Rock,0.4193746734868491
3,3,Sand,0.44986567609341077
3,4,Mud,0.09995097181693147
4,1,Rock,0.1411580801028968
4,2,Mixed,0.49349595942038693
4,4,Mud,0.3651396992493195
5,1,Rock,0.2150294773640843
5,2,Mixed,0.5650741830609857
5,3,Sand,0.017417130964046523
5,4,Mud,0.17103333768129114
6,1,Rock,0.13785131121447844
6,2,Mixed,0.255289300518031
6,3,Sand,0.14115175344905778
6,4,Mud,0.46345349485529463
7,1,Rock,0.03011690978832744
7,2,Mixed,0.46164692183815287
7,4,Mud,0.42396654729262623
8,1,Rock,0.009136902673042645
8,2,Mixed,0.44375377224773677
8,4,Mud,0.5021516899639977
9,1,Rock,0.1556150945483748
9,2,Mixed,0.2996032077043215
9,3,Sand,0.03632583531058402
9,4,Mud,0.4404254441775651
10,1,Rock,0.06344341354957837
10,2,Mixed,0.1076528908308435
10,3,Sand,0.19822813206767875
10,4,Mud,0.6292071711535244
11,1,Rock,0.10976521976314914
11,2,Mixed,0.06139351646803592
11,3,Sand,0.20623667055173503
11,4,Mud,0.6104410612123063
12,1,Rock,0.04370087531573351
12,2,Mixed,0.0038341781612981404
12,4,Mud,0.9088749239500461
13,1,Rock,0.16139885073631569
13,2,Mixed,0.05942806510735147
13,3,Sand,0.007802556221663221
13,4,Mud,0.741974172564263
14,1,Rock,0.07953416435936358
14,2,Mixed,0.012955599271737457
14,3,Sand,0.02995771541504917
14,4,Mud,0.8612302315052583
15,1,Rock,0.0685208173712354
15,2,Mixed,0.02589671278639764
15,3,Sand,0.04593713865330392
15,4,Mud,0.8510456875544623
16,1,Rock,0.04955667571444009
16,2,Mixed,0.01348148647684962
16,3,Sand,0.022467579528518175
16,4,Mud,0.9115873982897235
17,1,Rock,0.08041207249635371
17,2,Mixed,0.002397387722889541
17,3,Sand,0.004074356513397485
17,4,Mud,0.9032531919135541
18,1,Rock,0.08064533784624647
18,2,Mixed,0.20769701841704044
18,3,Sand,0.033901628621226254
18,4,Mud,0.6493827356658732
19,1,Rock,0.04805792123162971
19,2,Mixed,0.24075844918349978
19,4,Mud,0.7026901377067004
20,1,Rock,0.06646640564816611
20,2,Mixed,0.38328581242817117
20,4,Mud,0.5484927793597254
21,1,Rock,0.1456489484069424
21,2,Mixed,0.18228809227106002
21,3,Sand,0.01885849891268632
21,4,Mud,0.645611038908944
22,1,Rock,0.0438065508042992
22,2,Mixed,0.3689251516034541
22,3,Sand,0.00937667754571702
22,4,Mud,0.5631625750535284
23,1,Rock,0.5899276477566828
23,2,Mixed,0.0014611468262543494
23,3,Sand,0.0006987292195046982
23,4,Mud,0.36734092817515324
24,1,Rock,0.04197063536556792
24,2,Mixed,0.011954184294963775
24,3,Sand,0.028062685781410343
24,4,Mud,0.9180124956027357
25,1,Rock,0.06577527305771465
25,2,Mixed,0.03283437403079993
25,3,Sand,0.002209634859511351
25,4,Mud,0.8811457694648612
26,1,Rock,0.02796197456940544
26,2,Mixed,0.6471959508078435
26,3,Sand,0.017461538111929315
26,4,Mud,0.2902034288408133
27,1,Rock,0.043593999380395224
27,2,Mixed,0.0005496299506741116
27,4,Mud,0.9264025008185943
28,1,Rock,0.025654069195230087
28,2,Mixed,0.29651041357413266
28,3,Sand,0.09840366068289264
28,4,Mud,0.5629540443281204
29,1,Rock,0.4443203367505115
29,2,Mixed,0.31011110102173944
29,3,Sand,0.11312459442421133
29,4,Mud,0.098019029609583
30,1,Rock,0.04590920535169226
30,2,Mixed,0.5302997154951158
30,4,Mud,0.40264542612085513
31,1,Rock,0.05016863883731802
31,2,Mixed,0.016385305341063763
31,3,Sand,0.0007888689119068202
31,4,Mud,0.9295973716208642
32,1,Rock,0.7933714721847768
32,3,Sand,0.013423031419731992
32,4,Mud,0.12102772490512886
33,1,Rock,0.042543257128871345
33,2,Mixed,0.12142705435523242
33,3,Sand,0.04599517780200273
33,4,Mud,0.777452260346692
34,1,Rock,0.29836161015942786
34,2,Mixed,0.5622785045347507
34,3,Sand,0.07636560383187482
34,4,Mud,0.042706940245519825
35,1,Rock,0.11221040493044412
35,2,Mixed,0.0033045855264045997
35,3,Sand,0.38570476322072234
35,4,Mud,0.4013107475444834
36,1,Rock,0.19079216864319637
36,2,Mixed,0.05735824714970179
36,3,Sand,0.09902211050852372
36,4,Mud,0.6528274735280162
37,1,Rock,0.14759832476105192
37,2,Mixed,0.60360082725116
37,3,Sand,0.043204910975928115
37,4,Mud,0.2051859705769397
38,1,Rock,0.14221265757453105
38,2,Mixed,0.4901581698799041
38,4,Mud,0.367591891652978
39,1,Rock,0.30899872059818406
39,2,Mixed,0.35229992043849423
39,4,Mud,0.1107283784358749
40,1,Rock,0.27806530104070365
40,2,Mixed,0.2000018434690949
40,4,Mud,0.4933677805592284
41,1,Rock,0.29002356333259005
41,2,Mixed,0.2592975637250303
41,4,Mud,0.28962409429681946
42,1,Rock,0.09933803932869932
42,4,Mud,0.38851824668377066
43,1,Rock,0.006627163174084051
43,2,Mixed,0.7570645162272355
43,4,Mud,0.2363004403197324
44,1,Rock,0.20730303674750228
44,2,Mixed,0.026509875883479535
44,3,Sand,0.1590955029196997
44,4,Mud,0.5917605250808861
45,1,Rock,0.11046130246598343
45,2,Mixed,0.03710336374503816
45,3,Sand,0.027688898142037947
45,4,Mud,0.6871785022690905
46,1,Rock,0.38330975773154546
46,3,Sand,0.03261184945752703
46,4,Mud,0.5700760420072899
47,1,Rock,0.8345231546953242
47,2,Mixed,0.0016530335416890993
47,3,Sand,0.009455214946808987
47,4,Mud,0.018305293630844825
48,1,Rock,0.5397802593485875
48,3,Sand,0.20130012792508478
48,4,Mud,0.25836546560474594
49,1,Rock,0.05369496844341069
49,2,Mixed,0.7086739315001451
49,4,Mud,0.19360649437379562
50,1,Rock,0.059055373424994055
50,2,Mixed,0.1020074197536293
50,4,Mud,0.8388617730221242
51,1,Rock,0.06928898557470663
51,2,Mixed,0.018381886819850608
51,3,Sand,0.013196217479102924
51,4,Mud,0.8881230784137905
52,1,Rock,0.21084439057270865
52,2,Mixed,0.1577688756809221
52,3,Sand,0.0014308005048801842
52,4,Mud,0.611264801399533
53,1,Rock,0.1732173315668212
53,2,Mixed,0.03311113990162412
53,3,Sand,0.009314466249368363
53,4,Mud,0.7622451157389719
54,1,Rock,0.48616068313147653
54,2,Mixed,0.04469113434617734
54,3,Sand,0.011967138587900156
54,4,Mud,0.4396037517487001
55,1,Rock,0.32208960359027666
55,2,Mixed,0.029781313103263124
55,3,Sand,0.24837295380372115
55,4,Mud,0.33002477752572784
56,1,Rock,0.0634449978269746
56,2,Mixed,0.005863006173091513
56,3,Sand,0.00037731659845459506
56,4,Mud,0.9284949729871499
57,1,Rock,0.6508082234379063
57,2,Mixed,0.07688952686472174
57,3,Sand,0.10500075804036654
57,4,Mud,0.15772230519682265
58,1,Rock,0.12411459746867952
58,2,Mixed,0.2510781812726146
58,4,Mud,0.5796797551935947
59,1,Rock,0.01324720577727496
59,2,Mixed,0.3303448513540912
59,4,Mud,0.6138523113360903
60,1,Rock,0.00017102286717170226
60,2,Mixed,0.00038403489437512474
60,3,Sand,0.0012899628750589628
60,4,Mud,0.08487844450960015
61,1,Rock,0.8864329690472738
61,2,Mixed,0.027522325522368097
61,3,Sand,0.00426919965853501
62,1,Rock,0.12447722259630332
62,2,Mixed,0.020803439635440582
62,4,Mud,0.8547193418040473
63,1,Rock,0.19470359963612668
63,2,Mixed,0.018238345916845936
63,4,Mud,0.7606454313800078
64,1,Rock,0.06157120972450444
64,2,Mixed,0.49932279947234093
64,4,Mud,0.3956112604577786
65,1,Rock,0.9236057347651735
65,3,Sand,0.002102272462607755
66,1,Rock,0.12361442475115925
66,2,Mixed,0.20038392399759467
66,4,Mud,0.6760016453482942
67,1,Rock,0.15601494703401989
67,2,Mixed,0.465879555989593
67,4,Mud,0.349214565475186
68,1,Rock,0.31552539432143106
68,2,Mixed,0.17875011753459277
68,4,Mud,0.13660828699546448
69,1,Rock,0.11262509325064164
69,2,Mixed,0.15282877540224282
69,4,Mud,0.6442911465192908
70,1,Rock,0.39703040542764473
70,2,Mixed,0.2514246304815
70,4,Mud,0.017906004335270276
71,1,Rock,0.13849539231687735
71,2,Mixed,0.724981330093721
71,3,Sand,0.008837503517791367
71,4,Mud,0.12287275625483024
72,1,Rock,0.25334423434707154
72,2,Mixed,0.016432483142374093
72,3,Sand,0.056063766015158674
72,4,Mud,0.6580214303436596
73,1,Rock,0.36020102817665384
73,2,Mixed,0.12084953859939161
73,3,Sand,0.001328016907685622
73,4,Mud,0.5137746305844765
74,1,Rock,0.3305792299710902
74,2,Mixed,0.43052238889475086
74,3,Sand,0.0469007797359997
74,4,Mud,0.18433627773936448
75,1,Rock,0.592185167612528
75,2,Mixed,0.35336942854751774
75,3,Sand,0.005463215344799337
75,4,Mud,0.02259518565476386
76,1,Rock,0.3686968598088554
76,2,Mixed,0.586135652063809
76,4,Mud,0.004434553682415093
77,1,Rock,0.813819332641624
77,2,Mixed,3.583421016865177e-05
78,1,Rock,0.35491083502360515
78,2,Mixed,0.002851665892994844
78,3,Sand,0.13654632739166597
78,4,Mud,0.5021557117861611
79,1,Rock,0.003147815999802445
79,2,Mixed,0.04063279576103351
79,4,Mud,0.9411372116577564
80,1,Rock,0.1661206517784608
80,2,Mixed,0.019280077564054483
80,3,Sand,0.7610632176463415
81,1,Rock,0.47097176936848234
81,2,Mixed,0.21874331994523477
81,3,Sand,0.27696110240124877
81,4,Mud,0.024651052052418937
82,1,Rock,0.6616159927025358
82,2,Mixed,0.02266815968026052
82,3,Sand,0.17426807399879177
82,4,Mud,0.0057720678783397695
83,1,Rock,0.10489712084736731
83,2,Mixed,0.43900001841455
83,4,Mud,0.36635896551304276
84,1,Rock,0.05893410322604738
84,2,Mixed,0.11014425631913945
84,4,Mud,0.8280580407985008
85,1,Rock,0.030345746598331308
85,2,Mixed,0.10904189783853982
85,4,Mud,0.8467373401349408
86,1,Rock,0.07606192476182522
86,2,Mixed,0.37343302575221304
86,4,Mud,0.43736437574866915
87,1,Rock,0.10473101410752207
87,2,Mixed,0.24864860346717677
87,4,Mud,0.6223212319479056
88,1,Rock,0.02788583245309031
88,2,Mixed,0.23740151203372406
88,4,Mud,0.7023608185362983
89,1,Rock,0.047713253749100744
89,2,Mixed,0.4430546662903789
89,4,Mud,0.40246414998620167
90,1,Rock,0.061957081364911425
90,2,Mixed,0.6695766348804397
90,4,Mud,0.15637911119424175
91,1,Rock,0.011080848849066216
91,2,Mixed,0.09998457180258843
91,4,Mud,0.7319504588491881
92,1,Rock,0.2149430124055391
92,2,Mixed,0.27079998855118315
92,4,Mud,0.4284361985793748
93,1,Rock,0.08320897982999306
93,2,Mixed,0.5073742067830171
93,3,Sand,0.020563295496672043
93,4,Mud,0.12202319639868435
94,1,Rock,0.16835932260292927
94,2,Mixed,0.23331773364992642
94,3,Sand,0.29939354499441373
94,4,Mud,0.16091982229600957
95,1,Rock,0.011205404943834889
95,2,Mixed,0.2444259628224628
95,4,Mud,0.7433444292908121
96,1,Rock,0.05344960404869971
96,2,Mixed,0.0031277426185933217
96,4,Mud,0.9034163010834398
97,1,Rock,0.15827299633082104
97,2,Mixed,0.00020831681107755207
97,4,Mud,0.7202951478990683
98,1,Rock,0.08402033533504077
98,2,Mixed,0.014202248580753918
98,4,Mud,0.8993088727397908
99,1,Rock,0.08724032824445456
99,2,Mixed,0.07362094011053424
99,4,Mud,0.7857106229023356
100,1,Rock,0.014156521718688935
100,4,Mud,0.025682995174934112
101,1,Rock,0.5960905393178132
101,2,Mixed,0.30508216890826784
101,4,Mud,0.012677106216386855
102,1,Rock,0.34516199202210035
102,2,Mixed,0.5409801120840596
102,4,Mud,0.1060999073930939
103,1,Rock,0.07455383940337189
103,2,Mixed,0.35990407058681845
103,3,Sand,0.4072941590184408
103,4,Mud,0.15645128380614223
104,1,Rock,0.09450217125516831
104,2,Mixed,0.07035090430912046
104,3,Sand,0.012446390020310135
104,4,Mud,0.6911456950830304
105,1,Rock,0.06697273259052708
105,2,Mixed,0.05876668969812027
105,4,Mud,0.8536643563607259
106,1,Rock,0.2405313403363952
106,2,Mixed,0.11197334628134853
106,3,Sand,0.3068357346740197
106,4,Mud,0.3396538683224494
107,1,Rock,0.05558283290295508
107,2,Mixed,0.09850652116492722
107,4,Mud,0.8083341706070513
108,1,Rock,0.10653062014258882
108,2,Mixed,0.27522953895517194
108,4,Mud,0.5663229710275035
109,1,Rock,0.04013764548357633
109,2,Mixed,0.14215704200783943
109,4,Mud,0.8009154130262572
110,1,Rock,0.0501140263150121
110,2,Mixed,0.14520769762612454
110,4,Mud,0.7838341179173177
111,1,Rock,0.1666766754667208
111,2,Mixed,0.13241364846251802
111,4,Mud,0.595812463438979
112,1,Rock,0.21642796045767804
112,2,Mixed,0.3577509632210238
112,4,Mud,0.21559393970158913
113,1,Rock,0.23180448041447363
113,2,Mixed,0.476072287912846
113,4,Mud,0.2921232084020217
114,1,Rock,0.8516323501945142
114,2,Mixed,0.06328808302248312
115,1,Rock,0.6584639090150842
115,2,Mixed,0.23119553371536575
115,3,Sand,0.0055519931447280775
115,4,Mud,0.0520809376015691
116,1,Rock,0.6879482502008506
116,3,Sand,0.001555943352532529
117,1,Rock,0.027544529417394048
117,2,Mixed,0.06839319105921732
117,4,Mud,0.8960591019925211
118,1,Rock,0.07493879993082711
118,2,Mixed,0.21435070928189137
118,4,Mud,0.6903337666303266
119,1,Rock,0.9251559503502402
120,1,Rock,0.2580230027009617
120,2,Mixed,0.3181029090042712
120,3,Sand,0.05128222865823833
120,4,Mud,0.33133768044293543
121,1,Rock,0.1551585023630079
121,2,Mixed,0.05572521556034436
121,3,Sand,0.037825767389021915
121,4,Mud,0.708040561367222
122,1,Rock,0.4225895001804448
122,2,Mixed,0.276068359607696
122,3,Sand,0.08179023049870299
123,1,Rock,0.6159061746504378
123,2,Mixed,0.09400367890997048
123,3,Sand,0.06527927336470882
123,4,Mud,0.09987420509513775
124,1,Rock,0.09846041429697383
124,2,Mixed,0.20290560906664046
124,3,Sand,0.0019317529068850776
124,4,Mud,0.6914393747862594
125,1,Rock,0.7592636021902224
125,2,Mixed,0.00511880791240436
125,3,Sand,0.01895447505632539
125,4,Mud,0.18949884290307592
126,1,Rock,0.08107550452327228
126,2,Mixed,0.1527377265903845
126,4,Mud,0.7403714209374181
127,1,Rock,0.019829974163482544
127,2,Mixed,0.029140869397306608
127,4,Mud,0.4506322112045246
128,1,Rock,0.2859235644833218
128,2,Mixed,0.010030483397105069
128,3,Sand,0.09654612834555731
128,4,Mud,0.2018436179113073
129,1,Rock,0.15740860286084168
129,2,Mixed,0.004927668756446855
129,4,Mud,0.7543194948770486
130,1,Rock,0.05915090177613146
130,2,Mixed,0.1825043747953524
130,3,Sand,0.0028474432854464185
130,4,Mud,0.6206599895171013
131,1,Rock,0.768778275715138
131,2,Mixed,0.1858914416201241
131,4,Mud,0.016306212924759072
132,1,Rock,0.3810919987561661
132,2,Mixed,0.010179201002010169
132,3,Sand,0.5105868950658882
132,4,Mud,0.09767789547874998
133,1,Rock,0.6478677438736694
133,2,Mixed,0.12033520928835227
133,3,Sand,0.010733694522220632
133,4,Mud,0.2210633242072992
134,1,Rock,0.6080511409376884
135,1,Rock,0.5932367540148594
135,2,Mixed,0.11055588949455492
135,4,Mud,0.20000483170053307
136,1,Rock,0.2075168494877157
136,2,Mixed,0.11879000685893061
136,3,Sand,0.28311485894545574
136,4,Mud,0.3333892627863694
137,1,Rock,0.05504254256274786
137,2,Mixed,0.2153341202503671
137,3,Sand,0.0022238476899486205
137,4,Mud,0.7216299598229744
138,1,Rock,0.7428497957823031
139,1,Rock,0.9091820180660334
140,1,Rock,0.7463838742465572
140,2,Mixed,0.08897916905575627
140,4,Mud,0.0034195711033299762
141,1,Rock,0.7397598358322179
141,2,Mixed,0.11099503618053351
141,3,Sand,0.005273589429398413
142,1,Rock,0.9573406339191494
142,2,Mixed,0.00853281104764668
143,1,Rock,0.9006051211155586
143,2,Mixed,0.005181540693043744
143,3,Sand,0.00903902945535934
144,1,Rock,0.8736575408114947
144,2,Mixed,0.0009682609787628122
145,1,Rock,0.939806870332089
145,2,Mixed,0.028574087015408395
145,3,Sand,0.0023671806514324063
145,4,Mud,0.02532193703255405
146,1,Rock,0.9248387144448268
146,2,Mixed,0.02987534512504729
146,3,Sand,1.3392273110231863e-05
147,1,Rock,0.2091055533670594
147,2,Mixed,0.22676908675731236
147,3,Sand,0.19669541583279163
147,4,Mud,0.3534094926274485
148,1,Rock,0.40381239117639633
148,2,Mixed,0.31023420544453045
148,3,Sand,0.20281505556893345
149,1,Rock,0.9094409472138708
149,2,Mixed,0.017187728575614004
149,4,Mud,0.016229910549679337
150,1,Rock,0.5095412686737615
150,2,Mixed,0.02150058776066701
150,3,Sand,0.31521203363408257
150,4,Mud,0.15047292052117897
151,1,Rock,0.8979739990047604
151,2,Mixed,0.0005564225900187641
151,3,Sand,0.013462211787992083
151,4,Mud,0.011005806791662102
152,1,Rock,0.6280643635956725
152,2,Mixed,0.000772864493015888
152,4,Mud,0.02477679477630501
153,1,Rock,0.4403527449752023
153,2,Mixed,0.007525865189942606
153,3,Sand,0.003475035563281576
154,1,Rock,0.76212937065162
154,2,Mixed,0.027253692429086575
155,1,Rock,0.8247613004187911
155,2,Mixed,0.1167255220223711
155,4,Mud,0.00024839343528515874
156,1,Rock,0.7322744342394923
156,2,Mixed,0.023296971929670476
156,3,Sand,0.0012832239924423876
157,1,Rock,0.6576146383662218
157,2,Mixed,0.28192162691833367
157,4,Mud,0.008664152290003025
158,1,Rock,0.6736854012108723
158,2,Mixed,0.005371030277736973
158,4,Mud,0.012422167116893172
159,1,Rock,0.5410451807539475
159,2,Mixed,0.06088342885820128
159,3,Sand,0.14059648452209147
159,4,Mud,0.22860503704939814
160,1,Rock,0.09705183184192719
160,2,Mixed,0.11191469161132171
160,4,Mud,0.3855910614893691
161,1,Rock,0.06175902011177799
161,4,Mud,0.7905450059689425
162,1,Rock,0.26220844744254146
162,2,Mixed,0.2872726725252197
162,4,Mud,0.4236859465898936
163,4,Mud,0.9352091993308883
164,1,Rock,0.1587479762008228
164,2,Mixed,0.39700350555695046
164,4,Mud,0.39112128030529747
165,4,Mud,0.9925385660025071
166,1,Rock,0.0027425530001410894
166,4,Mud,0.9503627233314905
167,1,Rock,0.4900740132992749
167,2,Mixed,0.26674911921615324
167,3,Sand,0.009195112202991018
168,1,Rock,0.5387850780224311
168,2,Mixed,0.26602728392620245
168,3,Sand,0.04771124583256018
168,4,Mud,0.01257175409983934
169,1,Rock,0.2953169806897015
169,2,Mixed,0.43268742653974
169,3,Sand,0.024505132775848024
170,1,Rock,0.2019205894927828
170,2,Mixed,0.0023691956122250755
170,4,Mud,0.38083481846172035
171,1,Rock,0.7526523986781961
171,3,Sand,0.014069643495554588
171,4,Mud,0.1852631167750788
172,1,Rock,0.10575868714428603
172,2,Mixed,0.37377583191164687
172,4,Mud,0.48008177128026125
173,1,Rock,0.023007425949492573
173,2,Mixed,0.15004494954965844
173,3,Sand,0.06954337493778452
173,4,Mud,0.7327810805677333
174,1,Rock,0.1099755223631481
174,2,Mixed,0.10062584733598706
174,3,Sand,0.0003732605035142799
174,4,Mud,0.7807487214055466
175,1,Rock,0.03731052862166742
175,2,Mixed,0.016501898631873273
175,4,Mud,0.9240479958670375
176,1,Rock,0.0565059220826808
176,2,Mixed,0.4081347979545683
176,3,Sand,0.0005466521969778521
176,4,Mud,0.5324603105394488
177,1,Rock,0.0004498323443294382
177,2,Mixed,0.009658722327335788
177,4,Mud,0.9777314887919222
178,1,Rock,0.055568511968149645
178,2,Mixed,0.5212433978646289
178,3,Sand,0.002761696184501036
178,4,Mud,0.4100288736159839
179,1,Rock,0.9884002963423347
179,2,Mixed,0.008119077046505859
179,4,Mud,0.0010907528697552656
180,1,Rock,0.7670106717336213
180,2,Mixed,0.036487787178417205
180,4,Mud,0.12185981922590945
181,1,Rock,0.5609809563718674
181,2,Mixed,0.0004669831559610019
181,3,Sand,0.40261970358962634
182,1,Rock,0.9473059162033649
182,3,Sand,0.026345703534976013
183,1,Rock,0.004052755598243083
183,4,Mud,0.9370130518526889
184,1,Rock,0.11509012929785291
184,4,Mud,0.8742343656887506
185,1,Rock,0.09755325951774425
186,1,Rock,0.6015331515919521
186,2,Mixed,0.21584407667677066
186,3,Sand,0.004643881046063578
186,4,Mud,0.13720756122661934
187,1,Rock,0.14598391216736564
187,2,Mixed,0.029117677709895404
187,4,Mud,0.29021792418663017
188,1,Rock,0.07405526263989005
188,2,Mixed,9.697317069415503e-06
188,4,Mud,0.9178238844211299
189,1,Rock,0.37390620677780445
189,4,Mud,0.5362444991371781
190,1,Rock,0.5989883956544698
190,2,Mixed,0.04680293130331847
190,4,Mud,0.30588762509025813
191,1,Rock,0.1514032371763119
191,4,Mud,0.504607820707189
192,1,Rock,0.08765717442535591
192,2,Mixed,0.03045789911890157
192,4,Mud,0.87950148493431
193,1,Rock,0.4525012115967922
193,2,Mixed,0.12615033163305028
193,4,Mud,0.4212977326738342
194,1,Rock,0.0010360412979728353
194,2,Mixed,0.20084036164691815
194,4,Mud,0.16736286411902196
195,1,Rock,0.7811879265418518
195,2,Mixed,0.04190587253830568
195,4,Mud,0.15876095935092427
196,1,Rock,0.003048291471308625
196,2,Mixed,0.0473804704761039
196,4,Mud,0.9355197877001901
197,1,Rock,0.7631114130166113
197,2,Mixed,0.16929484239534462
197,4,Mud,0.06562808849927013
198,1,Rock,0.24770715286527747
198,3,Sand,0.006925067516110846
199,1,Rock,0.4322236088822688
199,2,Mixed,0.4955342508989977
199,3,Sand,0.05987909523116282
199,4,Mud,0.012363046623101427
200,1,Rock,0.9348925106530434
200,2,Mixed,0.014454851378698676
200,4,Mud,0.008942098553855174
201,1,Rock,0.011670911006340134
201,3,Sand,0.0007012295114220304
201,4,Mud,0.9822844540006155
202,1,Rock,0.15283937024472494
202,4,Mud,0.03653403123870287
203,1,Rock,0.7290057952031102
203,4,Mud,0.23374233305276057
204,1,Rock,0.22618353691480195
204,2,Mixed,0.13008839909135253
204,3,Sand,0.4565009770005073
204,4,Mud,0.18245339436327299
205,1,Rock,1.103147388882703e-05
205,4,Mud,0.9872699058404867
206,1,Rock,0.008291378554629084
206,4,Mud,0.9888087280172223
207,1,Rock,0.058487997919598536
207,2,Mixed,0.5107399856187125
207,3,Sand,0.07699810812688718
207,4,Mud,0.35377391936499636
208,2,Mixed,0.3252448190183176
208,3,Sand,0.016295413688405567
208,4,Mud,0.43645377721963724
218,1,Rock,0.023296911027171657
218,2,Mixed,0.0041945114329430405
218,3,Sand,0.6334901046610099
218,4,Mud,0.3190263452850454
219,1,Rock,0.08069796366834486
219,3,Sand,0.0068628335576269555
219,4,Mud,0.8833926810052395
220,1,Rock,0.6871812310749901
220,2,Mixed,0.014938826896966307
220,3,Sand,0.09551772105685367
220,4,Mud,0.19502819253979672
221,1,Rock,0.025177428609801728
221,3,Sand,0.0010790539793334565
221,4,Mud,0.9270736150576852
222,1,Rock,0.9287183661363154
222,3,Sand,0.012209284780648241
223,1,Rock,0.3829260053926367
224,1,Rock,0.41918965982650536
224,2,Mixed,0.00192788395241523
224,3,Sand,0.055830103838789585
224,4,Mud,0.47076430542719333
225,1,Rock,0.8078454658883322
225,2,Mixed,0.004042099097041648
225,3,Sand,0.09105259001160038
226,1,Rock,0.1390836078210324
226,3,Sand,0.005045078531951926
226,4,Mud,0.5673437916990948
227,1,Rock,0.518307965669358
227,2,Mixed,0.17320549862090234
227,4,Mud,0.02169750148837713
228,1,Rock,0.42724553867864334
228,2,Mixed,0.17387929117708778
228,3,Sand,0.07826374655832123
228,4,Mud,0.31833147974943266
229,1,Rock,0.67520388976576
229,4,Mud,0.25912218090587236
230,1,Rock,0.8359081047720948
230,2,Mixed,0.013619459723606288
230,3,Sand,0.044472042173095805
230,4,Mud,0.08505507246480264
231,1,Rock,0.932994378960202
231,4,Mud,0.06380818303033751
232,1,Rock,0.0005739992478690573
232,4,Mud,0.9816290687215905
233,1,Rock,0.059741690805407116
234,1,Rock,0.04907598528815472
234,2,Mixed,0.01314207292027623
234,3,Sand,0.006972341744286644
234,4,Mud,0.924075282138497
235,4,Mud,0.9779974409190434
236,1,Rock,0.581377715450697
236,4,Mud,0.018257828933445873
237,1,Rock,0.23605685175847912
237,4,Mud,0.4244131533863501
238,1,Rock,0.3691979403446027
238,3,Sand,0.006455771123501546
238,4,Mud,0.4654040418789778
239,1,Rock,0.40712970643181723
239,3,Sand,0.0023458271387187084
239,4,Mud,0.4814647285166204
240,4,Mud,0.10620410244384278
241,1,Rock,0.4721548482826131
241,3,Sand,0.005088083806006861
241,4,Mud,0.49659788072654804
242,1,Rock,0.027683279345053494
242,3,Sand,0.05028010063006247
242,4,Mud,0.12662771311849286
243,1,Rock,0.5841161865723689
243,3,Sand,0.03468212935032004
243,4,Mud,0.3208045829009133
244,1,Rock,0.5683141803785489
244,4,Mud,0.18200047199615652
245,1,Rock,0.4288739836017411
245,3,Sand,0.0028176846380504714
245,4,Mud,0.5366811116766244
246,1,Rock,0.30099021203855975
246,4,Mud,0.4375901798743423
247,1,Rock,0.43745766335479735
247,2,Mixed,0.001869295067946101
247,3,Sand,0.010966703274629511
247,4,Mud,0.40390687355846655
248,1,Rock,0.21727065628442516
248,3,Sand,0.004530586689179212
248,4,Mud,0.5344499059433712
249,1,Rock,0.001488779013996963
249,3,Sand,0.00029835173829830485
249,4,Mud,0.7829253429547386
250,1,Rock,0.019483653039807917
250,4,Mud,0.6675426875454848
251,1,Rock,0.0011812168502675626
251,4,Mud,0.995572317460546
252,1,Rock,0.018383630391881445
252,3,Sand,0.002393815738322379
252,4,Mud,0.6688110967554831
254,4,Mud,0.9085301631199515
255,1,Rock,0.014045181969202878
255,4,Mud,0.9102326804470958
256,1,Rock,0.0028102504231168946
256,4,Mud,0.9080565388474096
257,1,Rock,0.002504062218661453
257,4,Mud,0.9659946206550111
258,1,Rock,0.011279013673939157
258,4,Mud,0.9416547111079647
259,1,Rock,0.012406647014865671
259,3,Sand,0.04419012375010135
259,4,Mud,0.9059289786114776
260,1,Rock,0.009163250690311242
260,3,Sand,0.0005832420338449583
260,4,Mud,0.8698264812371438
261,1,Rock,0.017265549483492623
261,4,Mud,0.909551741721834
262,1,Rock,0.04155674378939209
262,4,Mud,0.7429401567027079
263,1,Rock,0.1251028275868699
264,4,Mud,0.9600688592508264
265,1,Rock,0.24651529402201292
265,4,Mud,0.6635174745820958
266,1,Rock,0.07225731879386062
266,4,Mud,0.5389370442643601
268,1,Rock,0.15088966566014322
269,1,Rock,0.15409349147456866
269,4,Mud,0.3483131374124257
270,1,Rock,0.8525349092031389
271,4,Mud,0.38151428234163004
272,1,Rock,0.6198032332399689
273,1,Rock,0.007120933375886526
273,4,Mud,0.9785451350701654
274,1,Rock,0.1159967908253415
274,4,Mud,0.7853450426094696
275,1,Rock,0.38621528298030383
275,2,Mixed,0.003471804181122601
275,4,Mud,0.5022756708047659
276,1,Rock,0.6326638491951083
276,4,Mud,0.2780608610839051
277,1,Rock,0.21542935490527385
277,4,Mud,0.32838188017861414
278,1,Rock,0.015536419357923463
278,4,Mud,0.9536142471464872
279,1,Rock,0.0023611109657992253
279,4,Mud,0.9828643848109465
280,1,Rock,0.11794357708894855
280,4,Mud,0.8283498791358131
281,1,Rock,0.7450282267324181
281,2,Mixed,0.004824251958034676
282,1,Rock,0.2311977554823959
282,2,Mixed,0.012021398473492166
282,4,Mud,0.48719772205796785
283,1,Rock,0.5009113171297421
283,4,Mud,0.16933018362275679
284,1,Rock,0.05851235394140545
284,2,Mixed,0.01068807592048608
284,3,Sand,0.019871030377631594
284,4,Mud,0.8939461036533098
285,1,Rock,0.5684147701194503
285,2,Mixed,0.0056174022470218705
285,4,Mud,0.07726382923737032
286,1,Rock,0.632202598632107
286,2,Mixed,0.017031190223875982
286,3,Sand,0.2630430192980507
286,4,Mud,0.05579858892505668
287,1,Rock,0.8496057443250997
287,3,Sand,0.056513779692855086
288,1,Rock,0.7803990555000672
289,1,Rock,0.5496626730231549
291,1,Rock,0.749576479396347
291,3,Sand,0.008471301872319778
291,4,Mud,0.17855476424953282
292,1,Rock,0.6668004364243733
292,4,Mud,0.23250626727101117
294,4,Mud,0.6497904110095251
295,1,Rock,0.18100487669730134
295,3,Sand,0.001812839462165732
295,4,Mud,0.7623671241673813
296,1,Rock,0.003552299795907851
296,4,Mud,0.9770723799418892
297,1,Rock,0.05348537301783868
297,3,Sand,0.0006148770197908099
297,4,Mud,0.8078337691161857
298,4,Mud,0.7263831808843382
299,1,Rock,0.01255877621959799
299,4,Mud,0.7875940630333438
300,1,Rock,0.0013526457485208679
300,4,Mud,0.873837935341456
301,1,Rock,0.0006561434960523441
301,4,Mud,0.8799611658549763
302,1,Rock,0.3802692440735126
303,1,Rock,0.7370565000313849
304,1,Rock,0.38957285347575377
304,2,Mixed,0.02281227340297204
304,4,Mud,0.20309032160912607
305,1,Rock,0.7380215751868014
305,2,Mixed,0.014449170754658828
305,4,Mud,0.053142988720517766
306,1,Rock,0.04494079898439309
306,4,Mud,0.8680360181014044
307,4,Mud,0.9634851376750617
308,1,Rock,0.005947041062884574
308,4,Mud,0.9940530731460598
309,3,Sand,0.017162670707233145
309,4,Mud,0.9550499266009169
310,1,Rock,0.7180186548379568
311,1,Rock,0.011302435198837158
311,4,Mud,0.014096014418817464
312,4,Mud,0.8960782779898584
313,1,Rock,0.04486351412690518
313,2,Mixed,0.12144553190063917
313,3,Sand,0.0007244043464769823
313,4,Mud,0.8083683814709325
314,1,Rock,0.012973489249464183
315,1,Rock,0.6184252660905087
315,4,Mud,0.21941414485181554
316,1,Rock,0.802859644084442
316,2,Mixed,0.022068180705269995
316,3,Sand,0.031267817183686764
316,4,Mud,0.02858046080154467
317,1,Rock,0.026145614498333223
317,4,Mud,0.958839383211177
318,4,Mud,0.09206793315122956
319,1,Rock,0.3044395906751414
319,4,Mud,0.6044017673824239
320,1,Rock,0.005819601575483443
320,4,Mud,0.6565078409037689
321,4,Mud,0.37083104437526504
322,4,Mud,0.9097302888953933
323,1,Rock,0.014325617682327702
323,4,Mud,0.6373969074428874
324,1,Rock,0.012370578104158255
324,4,Mud,0.7149441829471872
325,4,Mud,0.33445138128833446
326,1,Rock,0.7155206775374056
326,3,Sand,0.0016719672756917248
326,4,Mud,0.03438407107933083
327,1,Rock,0.15026950368502656
327,4,Mud,0.8170462817178378
328,1,Rock,0.011874288340225499
328,4,Mud,0.983224843166381
329,1,Rock,0.06339905817532329
330,4,Mud,1.000000000000001
331,1,Rock,0.5851625515673331
332,1,Rock,0.14256293849268895
332,2,Mixed,0.7328763283985367
332,4,Mud,0.012823732437441298
333,1,Rock,0.07050706777109178
333,4,Mud,0.9287705803845558
334,1,Rock,0.431998287428228
334,4,Mud,0.42680113420103827
335,1,Rock,0.14190055839991625
336,1,Rock,0.0001538477459145862
336,4,Mud,0.9781001784052562
337,1,Rock,0.4838557753040981
337,2,Mixed,0.3801870695351584
337,3,Sand,0.03130554682902404
337,4,Mud,0.08812512094576494
338,1,Rock,0.5185768975098782
338,2,Mixed,0.015126349469340538
338,4,Mud,0.24829564160847423
339,1,Rock,0.28478008152758566
339,2,Mixed,0.42221493011730193
339,4,Mud,0.08771093759199955
340,1,Rock,0.6167666804071963
340,3,Sand,0.3037299223739097
340,4,Mud,0.07950340259759812
341,1,Rock,0.6160801149403873
341,2,Mixed,0.004311609551472045
341,3,Sand,0.3705790812158501
342,1,Rock,0.2960955197886438
342,2,Mixed,0.32791552514850747
342,4,Mud,0.37550140877066224
343,1,Rock,0.7592229831874779
343,2,Mixed,0.15216046571832254
343,4,Mud,0.02512060741010231
344,1,Rock,0.022977745768067392
345,1,Rock,0.0694984825146253
345,4,Mud,0.5794459479156558
346,1,Rock,0.09589060233744096
346,2,Mixed,0.003702869126502589
346,3,Sand,0.018449317173159393
346,4,Mud,0.852725520520515
347,1,Rock,0.13987989175378382
347,4,Mud,0.6604357150937155
348,1,Rock,0.1084166240228871
348,2,Mixed,0.20148918831966206
348,4,Mud,0.6900941875495625
349,1,Rock,0.8761723798810704
350,1,Rock,0.6468827091973443
350,2,Mixed,0.009048054966898299
350,3,Sand,0.01696510306293431
350,4,Mud,0.29438001500135413
351,1,Rock,0.5878452955386378
351,2,Mixed,0.0003705793701120161
351,3,Sand,0.38765572955851063
352,1,Rock,0.20910828870810122
352,4,Mud,0.5958552685047143
353,1,Rock,0.06752058612319882
353,2,Mixed,0.005804574229167141
353,4,Mud,0.6427701685062196
354,1,Rock,0.2281986003515727
354,4,Mud,0.5781404544867038
355,4,Mud,0.9944648911205562
356,1,Rock,0.0675965753800886
356,4,Mud,0.8642913106414171
357,1,Rock,0.02839566751302083
357,3,Sand,0.0012369123030640638
357,4,Mud,0.8201295835071438
358,1,Rock,0.007695390865918103
358,4,Mud,0.9597376891730408
359,1,Rock,0.00021517712979753317
359,4,Mud,0.9975204443168045
360,4,Mud,0.9998945936291564
361,1,Rock,0.030608027808288557
361,2,Mixed,0.021443133897079927
361,3,Sand,0.17957793290825377
361,4,Mud,0.41183580671860875
362,1,Rock,0.077042928291907
362,2,Mixed,0.01914081452345019
362,4,Mud,0.8922930084887885
363,1,Rock,0.0006155021393004686
363,4,Mud,0.342431840667365
364,1,Rock,0.9999999999999978
365,1,Rock,0.036202805827086
365,4,Mud,0.821213339646828
366,1,Rock,0.3216241243062539
366,2,Mixed,0.02186302587607812
366,3,Sand,0.5918028206404292
368,1,Rock,0.15281371120595524
368,2,Mixed,0.051561243772790435
368,4,Mud,0.5427094689879202
369,1,Rock,0.68690200734548
369,2,Mixed,0.002028776975468948
369,3,Sand,0.18279815134977695
369,4,Mud,0.10778042508856357
370,1,Rock,0.4679113262908332
370,4,Mud,0.15608192185168326
371,1,Rock,0.13928568417350132
371,3,Sand,0.059772194539140996
371,4,Mud,0.4600161190322352
372,1,Rock,0.5809068618620415
372,3,Sand,0.08761037941439709
372,4,Mud,0.14778355490898018
373,1,Rock,0.26953165478416957
373,2,Mixed,0.025453652517433333
373,3,Sand,0.0031959336761382745
373,4,Mud,0.6848456819508202
374,1,Rock,0.05139643637945919
374,3,Sand,0.019286995584517175
374,4,Mud,0.9288659461975292
375,1,Rock,0.4601482920446374
375,4,Mud,0.4050717371843547
376,1,Rock,0.2168195938977453
376,3,Sand,4.03497740503973e-06
376,4,Mud,0.7636873261914083
377,1,Rock,0.3384616691651402
377,3,Sand,0.0035039503623026384
377,4,Mud,0.6527712605047056
378,1,Rock,0.536009104376368
378,3,Sand,0.020766611500156844
378,4,Mud,0.38567793174765796
379,1,Rock,0.7738160328762387
379,2,Mixed,0.010773366776538664
379,3,Sand,0.04842754445492782
379,4,Mud,0.030359255189512106
380,1,Rock,0.04672627920181032
380,3,Sand,0.007006799392827772
380,4,Mud,0.8448574327843931
381,1,Rock,0.1903283562568571
381,2,Mixed,0.00166694579102742
381,3,Sand,0.00020112787601028073
381,4,Mud,0.7890382167857144
382,1,Rock,0.5357306446053768
382,4,Mud,0.3874134700814641
383,1,Rock,0.708165303393406
383,4,Mud,0.08065294763454368
384,1,Rock,0.25588750289458945
384,3,Sand,0.12364591640628532
384,4,Mud,0.6203336550219635
385,1,Rock,0.8403459718684488
385,4,Mud,0.006854401952900808
387,1,Rock,0.1053404858317024
387,4,Mud,0.8196579646489295
388,1,Rock,0.29562014979906287
388,4,Mud,0.2891809717284685
389,1,Rock,0.23680272196590155
389,2,Mixed,0.050691302060607735
389,3,Sand,0.15628897828028793
389,4,Mud,0.5537882147593157
390,1,Rock,0.0678167518462993
390,2,Mixed,0.012104992988679389
390,3,Sand,0.21386604029368014
390,4,Mud,0.6419342075566121
391,1,Rock,0.08497974035138751
391,2,Mixed,0.011076738997052464
391,3,Sand,0.5634908635352832
391,4,Mud,0.33897899379140217
392,1,Rock,0.2849828972828792
392,2,Mixed,0.02402789172523517
392,3,Sand,0.006800625149469976
392,4,Mud,0.6679884785484681
393,1,Rock,0.1479505163640301
393,4,Mud,0.8358431035486912
394,1,Rock,0.09709385755005848
394,4,Mud,0.8941012620529244
395,1,Rock,0.2596300365131213
395,2,Mixed,0.006243047219610278
395,4,Mud,0.7141662646713755
396,1,Rock,0.05804211146374367
396,3,Sand,0.13364811884578873
396,4,Mud,0.8044107049106218
397,1,Rock,0.19681827069873897
397,2,Mixed,0.006559079573686369
397,3,Sand,0.005869682439201664
397,4,Mud,0.47134092287453005
398,1,Rock,0.7541220561023232
398,2,Mixed,0.007133626518410065
399,1,Rock,0.5676250450512275
399,2,Mixed,0.03373022228428386
399,4,Mud,0.043369432567188296
400,1,Rock,0.09524746846512545
400,2,Mixed,0.010126926773653478
400,3,Sand,0.005437103959523046
400,4,Mud,0.8527247465407818
401,1,Rock,0.07066768738969241
401,2,Mixed,0.03427649765464826
401,3,Sand,0.18758005968014035
401,4,Mud,0.6884998431966973
402,1,Rock,0.5780629755209109
402,4,Mud,0.25343847150183296
403,1,Rock,0.20611173283717837
403,2,Mixed,0.008567383717252679
403,3,Sand,0.041313732354265234
403,4,Mud,0.7341796156647329
404,1,Rock,0.5642663525497394
404,2,Mixed,0.027290149858321896
404,3,Sand,0.005316466642201785
404,4,Mud,0.3791786708292837
405,1,Rock,0.24321223807872958
405,2,Mixed,0.13869492651395338
405,3,Sand,0.2152453382850409
405,4,Mud,0.4005154026023707
406,1,Rock,0.07781582021371325
406,2,Mixed,0.016494995052092537
406,3,Sand,0.013606853111203212
406,4,Mud,0.8842518365057235
407,1,Rock,0.011796310097747903
407,2,Mixed,0.0011794200905862768
407,3,Sand,0.0008903358868317343
407,4,Mud,0.9833566310883499
408,1,Rock,0.587457207242466
408,2,Mixed,0.21477048955784692
408,3,Sand,0.043865196989121065
408,4,Mud,0.14602836261834398
409,1,Rock,0.8826686735584255
409,2,Mixed,0.046130848264506565
409,3,Sand,0.0037753050320641986
409,4,Mud,0.06742516317998189
410,1,Rock,0.2838619453617216
410,2,Mixed,0.6459191785050873
410,3,Sand,0.010122219307392698
410,4,Mud,0.023160280969272203
411,1,Rock,0.2627329258766284
411,2,Mixed,0.13911066897388924
411,3,Sand,0.0662532048577958
411,4,Mud,0.5103674054262116
412,1,Rock,0.5670745207662788
412,2,Mixed,0.026910281065419726
412,4,Mud,0.10944372461036989
413,1,Rock,0.34235098136135694
413,2,Mixed,0.07149477232871951
413,3,Sand,0.12250803338882413
413,4,Mud,0.4599014513313707
414,1,Rock,0.3383151104217467
414,2,Mixed,0.3803523471549325
414,3,Sand,0.060522947036124194
414,4,Mud,0.1731386813622404
415,1,Rock,0.1419355094191269
416,1,Rock,0.5239014071908716
416,2,Mixed,0.21858880057569477
416,3,Sand,0.02065272497705484
416,4,Mud,0.16560745745439362
417,1,Rock,0.007725724835763768
417,3,Sand,0.002004381770314468
417,4,Mud,0.9887937619354169
418,1,Rock,0.17699501737598514
420,1,Rock,0.894574202548789
420,3,Sand,0.07901332242607353
420,4,Mud,0.026412506629678728
421,1,Rock,0.19623181942468032
421,4,Mud,0.5286515993697675
423,1,Rock,0.2686023084588124
423,2,Mixed,0.3314449769162293
423,3,Sand,0.06684359046245658
423,4,Mud,0.2692809511970547
425,1,Rock,0.6708080836219865
425,2,Mixed,0.1688425783709541
425,3,Sand,0.016621167988155168
425,4,Mud,0.060242781732874257
426,1,Rock,0.46113660223296266
426,2,Mixed,0.1332907662597698
426,4,Mud,0.23800260042422916
427,1,Rock,0.07774112596023011
427,2,Mixed,0.01083394206512517
427,3,Sand,0.02075677360246257
427,4,Mud,0.8753203963426578
431,1,Rock,0.015340499029829105
431,2,Mixed,0.0003265512832639423
431,3,Sand,0.020361828565456784
431,4,Mud,0.7454711320101363
432,1,Rock,0.02579091861255868
432,3,Sand,0.0017301232624926846
432,4,Mud,0.885244536839609
433,1,Rock,0.7595964717586156
433,2,Mixed,0.12613085029477522
433,3,Sand,0.0007717752289519645
434,1,Rock,0.6091450900384389
434,2,Mixed,0.07232662157845579
434,3,Sand,0.09067158655267242
434,4,Mud,0.21424177810624573
435,4,Mud,1.0
436,1,Rock,1.0000000000000047
437,4,Mud,0.989955268082616
439,1,Rock,0.7594550886076754
439,2,Mixed,0.12723127132601544
440,4,Mud,0.9831709119899152
442,1,Rock,0.002594300945445634
442,4,Mud,0.9767212769204656
443,4,Mud,0.9768449427692015
444,1,Rock,0.00021913038263673005
444,4,Mud,0.9440362600030948
445,1,Rock,0.6680469020954016
445,3,Sand,0.0012069378445390172
445,4,Mud,0.31193316851140634
