EST_NO,survey_count_SUM,biomass_MEAN,biomass_SUM
1,18,1076.3089097118414,19373.560374813143
2,52,2046.5101627852375,98232.4878136914
5,59,1674.4111658009454,78697.32479264443
6,11,3133.2784166233046,34466.06258285635
10,13,548.9350716443937,6587.220859732724
11,29,1779.3120192489716,51600.04855822018
15,3,228.57663744004242,685.7299123201273
16,3,1921.3268075310164,5763.980422593049
24,1,457.332736,457.332736
25,6,8.785924567866964,17.571849135733927
28,1,10224.605651252286,10224.605651252286
29,49,1056.0666751064193,49635.133730001704
34,4,1538.2112055831708,6152.844822332683
36,16,1050.849192052277,16813.58707283643
39,1,10224.605651252286,10224.605651252286
41,1,3519.236998270493,3519.236998270493
59,28,140.89102602586485,2817.8205205172967
64,2,425.1411124398063,850.2822248796126
72,2,1852.320975,1852.320975
74,78,2671.4513011447884,162958.5293698321
75,4,1538.2112055831708,6152.844822332683
80,1,1130.4489815059526,1130.4489815059526
94,11,1281.5399121202565,14096.939033322822
106,2,912.7918916076793,1825.5837832153586
118,2,221.9362506913648,443.8725013827296
120,4,942.3739398120947,3769.495759248379
131,1,3234.1169897373115,3234.1169897373115
159,2,987.6816715111961,1975.3633430223922
160,16,757.2323000843513,10601.252201180918
161,1,0.0,0.0
164,3,60.8055555,60.8055555
170,1,0.0,0.0
184,1,11.915980302708732,11.915980302708732
204,58,2387.242672016724,83553.49352058534
218,8,6.281029049234969,43.96720334464479
220,2,39.191938500000006,39.191938500000006
228,2,18243.059440574885,36486.11888114977
229,1,5.002054332959354,5.002054332959354
230,6,90.62583839195128,271.87751517585383
273,2,228.666368,457.332736
274,6,160.63494217503145,481.90482652509434
275,1,2113.774031668589,2113.774031668589
276,2,1366.8083133633954,2733.616626726791
277,5,1191.1005749074243,5955.502874537121
278,5,290.1957273993023,1160.7829095972093
279,3,286.522694437289,859.5680833118669
280,1,63.53648,63.53648
282,3,394.89282318689646,1184.6784695606893
283,3,1279.125207187729,3837.3756215631875
285,1,1521.7549367645615,1521.7549367645615
286,1,1521.7549367645615,1521.7549367645615
290,36,865.9592486633144,19051.103470592916
303,46,1245.5883436637873,51069.12209021528
305,23,1061.5977102010074,24416.74733462317
306,20,982.2853592735569,17681.136466924025
308,5,1261.406735838512,5045.626943354048
313,1,10.374074982515536,10.374074982515536
323,9,37.961398162956634,113.8841944888699
324,9,37.961398162956634,113.8841944888699
326,1,45.02377254,45.02377254
327,2,22.51188627,45.02377254
328,2,22.51188627,45.02377254
333,6,1732.3712394804227,3464.7424789608453
334,1,198.9723387187831,198.9723387187831
335,1,146.65991999999997,146.65991999999997
337,3,678.4567270693971,2035.3701812081913
338,1,5143.131848401516,5143.131848401516
339,6,940.7779669571942,5644.667801743165
340,3,258.42791639636545,775.2837491890964
342,1,10224.605651252286,10224.605651252286
350,1,108.57868345162392,108.57868345162392
354,4,1236.130431181883,2472.260862363766
356,2,1589.6413192633106,3179.282638526621
357,36,246.87861595379263,2715.664775491719
358,22,207.46335597591846,2074.6335597591847
361,2,0.0,0.0
374,4,455.88179458222595,1823.5271783289038
387,12,23.81843831291969,214.3659448162772
388,106,27.983236390357398,447.73178224571836
389,1,56.95567979999999,56.95567979999999
390,54,63.52449793500992,571.7204814150892
391,1,35.09922818848789,35.09922818848789
393,2,3.66315386,7.32630772
394,1,12.934212,12.934212
399,4,155.80179805059672,311.60359610119343
400,1,39.7855404,39.7855404
401,14,45.88751891172478,275.3251134703487
403,1,10.539216,10.539216
408,13,320.4616960364346,1281.8467841457384
410,1,275.45678001076857,275.45678001076857
431,1,0.0,0.0
434,1,412.1876756968513,412.1876756968513
