EST_NO,length_div_estArea
1,0.0001759340966574295
4,0.00044219374364757214
5,0.0012059058898814434
6,0.0006400778905649102
9,0.00020026945424263308
13,0.00018576070535997945
15,8.589775789075773e-05
34,0.0005885005836764529
35,8.596117510300339e-05
36,0.003209021300695517
38,0.00037875690276054796
44,0.0006003720531699024
45,0.00016611999364946715
46,0.0011775725125447998
47,0.007100234455211624
48,0.005792500611924364
55,0.0025913677400659784
56,0.0011059721603566338
58,0.007406717691676946
59,0.004049028952189139
61,0.00865969403913621
65,0.030356972874339097
70,0.03045866113253603
71,0.002196346964654015
73,0.014484150294047208
77,0.01378119167513234
81,0.0034853936222493755
82,0.0039633585979659
84,0.0019483924984264951
94,0.044380146671394415
98,0.00113810056796457
102,0.0016406417000922656
103,0.0007939181511784784
106,0.001254429732593385
114,0.015550890341667173
115,0.010054873757502202
116,0.04099896151653153
119,0.011351203112913306
121,0.0004902458896780726
122,0.0034099651025265134
123,0.005812590202201773
124,0.0012578136958730248
125,0.006178885890434768
128,0.002252969696167554
131,0.027328473120096168
133,0.00833224656595849
134,0.037539076403844525
135,0.010361037737554299
138,0.004750576632261241
139,0.0008844707757678873
140,0.014416654799216092
141,0.02411817678261237
142,0.02111292906677175
143,0.012007707532494494
144,0.0024532284660187093
145,0.002888898029448574
146,0.0239030176092788
150,0.0003243021302240541
151,0.00704560615100466
152,0.013464929608569006
153,0.0008938628959630372
154,0.003924175719327338
155,0.003182844048911931
156,0.0018909183898920354
157,0.0016170934752194569
158,0.005581319400020004
159,0.007776458340841668
160,8.717784647878444e-05
161,0.002660955935968605
162,0.0034629229115773295
164,0.007697245405726599
165,0.0006572401946420691
168,0.0025251328672290805
169,0.0018974725713648485
171,0.0037851335426993676
176,8.827148114513655e-05
179,0.0019451072427873392
185,0.02889827058627341
190,0.0006906341671266326
199,0.00016849161756108012
204,0.0026598051249751217
210,0.0015722337547470458
215,0.00843384236005386
220,0.005926145634556081
221,0.001326080518878265
222,0.0481203905975584
223,0.03628561282216135
224,0.008406815399502823
227,0.0060381056937880715
228,0.001951908862878249
233,0.026466043605751655
236,0.02083346218919459
238,0.004217726532984378
242,0.020758065072996067
243,0.005287207875801569
244,0.011101592470456507
247,0.024009234844300297
248,0.0029932805625760353
250,0.03867713258324897
260,0.0004902262832030075
261,0.0009490797826489473
268,0.07671328583471801
270,0.012363175172265786
272,0.07986187251219437
280,0.0010271912948997153
281,0.014522941864212022
282,0.006201764639976813
287,0.01636748019246759
288,0.04452109350288518
289,0.020787017987760167
291,0.006666205574438221
334,0.004796316448078363
337,0.01506691012451254
338,0.014866557798171259
339,0.01983077142060356
340,0.019588586938675583
341,0.006375550092417129
348,0.00026145315103370066
349,0.028564820618658456
350,0.0016279912827533477
351,0.0011146113158798947
364,0.2257872212467532
366,0.0011176854629653787
369,0.0025687428935626676
373,0.0016236947754455107
378,0.007309873957512679
381,3.3665997213353516e-05
385,0.010650793733027124
398,0.010946737842833797
429,0.00010784826037203243
431,4.5887382425523004e-06
433,0.0019053525441873713
434,0.0006545078428759914
439,0.023897876787547574
443,0.007220176825801105
445,0.0005157513501340187
